lab3/starter/sim/tests/addu/streamwave.vcd
$date
	Fri Mar  2 18:53:01 2018
$end
$version
	Icarus Verilog
$end
$timescale
	1ps
$end
$scope module userlogic_test $end
$var wire 32 ! data_out [31:0] $end
$var wire 15 " input_buffer_addr [14:0] $end
$var wire 15 # output_buffer_addr [14:0] $end
$var wire 32 $ ul_instr [31:0] $end
$var wire 32 % ul_instr_addr [31:0] $end
$var wire 32 & ul_read_addr [31:0] $end
$var wire 32 ' ul_read_data [31:0] $end
$var wire 32 ( ul_status [31:0] $end
$var wire 32 ) ul_test [31:0] $end
$var wire 32 * ul_write_addr [31:0] $end
$var wire 32 + ul_write_data [31:0] $end
$var wire 16 , ul_write_data_hi [15:0] $end
$var wire 16 - ul_write_data_lo [15:0] $end
$var wire 2 . ul_write_en_hi [1:0] $end
$var wire 2 / ul_write_en_lo [1:0] $end
$var reg 1 0 clk $end
$var reg 32 1 cycle_count [32:1] $end
$var integer 32 2 dump_vars [31:0] $end
$var reg 8192 3 dump_vars_filename [8192:1] $end
$var integer 32 4 i [31:0] $end
$var reg 10 5 image_n_columns [9:0] $end
$var reg 10 6 image_n_rows [9:0] $end
$var reg 8192 7 input_buffer_filename [8192:1] $end
$var reg 8192 8 instr_mem_filename [8192:1] $end
$var reg 32 9 num_cycles [32:1] $end
$var reg 33 : out_end_addr [32:0] $end
$var reg 33 ; out_start_addr [32:0] $end
$var integer 32 < outfile [31:0] $end
$var reg 8192 = output_buffer_filename [8192:1] $end
$var reg 15 > read_addr [14:0] $end
$var integer 32 ? read_input_buffer [31:0] $end
$var integer 32 @ read_instr_mem [31:0] $end
$var integer 32 A result [31:0] $end
$var reg 1 B rst_n $end
$var reg 8192 C test_result_filename [8192:1] $end
$var reg 32 D ul_command [31:0] $end
$var integer 32 E write_output_buffer [31:0] $end
$var integer 32 F write_test_result [31:0] $end
$scope module instr_mem $end
$var wire 14 G addr [13:0] $end
$var wire 1 H clk $end
$var wire 32 I din [31:0] $end
$var wire 1 J we $end
$var reg 32 K dout [31:0] $end
$upscope $end
$scope module input_buffer $end
$var wire 15 L addr [14:0] $end
$var wire 1 H clk $end
$var wire 32 M din [31:0] $end
$var wire 1 N we $end
$var reg 32 O dout [31:0] $end
$upscope $end
$scope module output_buffer $end
$var wire 15 P addr [14:0] $end
$var wire 1 H clk $end
$var wire 32 Q din [31:0] $end
$var wire 4 R we [3:0] $end
$var reg 32 S dout [31:0] $end
$scope begin column[0] $end
$upscope $end
$scope begin column[1] $end
$upscope $end
$scope begin column[2] $end
$upscope $end
$scope begin column[3] $end
$upscope $end
$upscope $end
$scope module ul $end
$var wire 1 T addr_cmd $end
$var wire 1 U addr_iobuf $end
$var wire 1 V addr_local $end
$var wire 1 W addr_status $end
$var wire 1 X addr_test $end
$var wire 1 H clk $end
$var wire 32 Y command [31:0] $end
$var wire 32 Z instr [31:0] $end
$var wire 32 [ instr_addr [31:0] $end
$var wire 32 \ mips_addr [31:0] $end
$var wire 32 ] mips_local_read_data [31:0] $end
$var wire 32 ^ mips_pc [31:0] $end
$var wire 32 _ mips_read_data [31:0] $end
$var wire 1 ` mips_read_en $end
$var wire 4 a mips_write_en [3:0] $end
$var wire 32 b read_addr_hi [31:0] $end
$var wire 32 c read_addr_lo [31:0] $end
$var wire 32 d read_data [31:0] $end
$var wire 16 e read_data_hi [15:0] $end
$var wire 16 f read_data_lo [15:0] $end
$var wire 1 g rst_n $end
$var wire 32 h status [31:0] $end
$var wire 32 i test [31:0] $end
$var wire 32 j write_addr_hi [31:0] $end
$var wire 32 k write_addr_lo [31:0] $end
$var wire 32 l write_data [31:0] $end
$var wire 16 m write_data_hi [15:0] $end
$var wire 16 n write_data_lo [15:0] $end
$var wire 2 o write_en_hi [1:0] $end
$var wire 2 p write_en_lo [1:0] $end
$var reg 32 q cmd_d [31:0] $end
$var reg 1 r read_cmd_d $end
$var reg 1 s read_iobuf_d $end
$var reg 32 t status_reg [31:0] $end
$var reg 32 u test_reg [31:0] $end
$scope module cpu $end
$var wire 32 v alu_op_x_ex [31:0] $end
$var wire 32 w alu_op_x_id [31:0] $end
$var wire 32 x alu_op_y_ex [31:0] $end
$var wire 32 y alu_op_y_id [31:0] $end
$var wire 1 z alu_op_y_zero_ex $end
$var wire 4 { alu_opcode_ex [3:0] $end
$var wire 4 | alu_opcode_id [3:0] $end
$var wire 1 } alu_overflow $end
$var wire 32 ~ alu_result_ex [31:0] $end
$var wire 32 !" alu_result_mem [31:0] $end
$var wire 32 "" alu_sc_result_ex [31:0] $end
$var wire 1 #" atomic_en $end
$var wire 1 H clk $end
$var wire 1 $" en $end
$var wire 1 %" en_if $end
$var wire 32 &" instr [31:0] $end
$var wire 32 '" instr_id [31:0] $end
$var wire 30 (" instr_number_id [29:0] $end
$var wire 32 )" instr_sav [31:0] $end
$var wire 32 *" jr_pc_id [31:0] $end
$var wire 1 +" jump_branch_id $end
$var wire 1 ," jump_reg_id $end
$var wire 1 -" jump_target_id $end
$var wire 32 ." mem_addr [31:0] $end
$var wire 1 /" mem_atomic_ex $end
$var wire 1 0" mem_atomic_id $end
$var wire 1 1" mem_byte_ex $end
$var wire 1 2" mem_byte_id $end
$var wire 1 3" mem_byte_mem $end
$var wire 32 4" mem_out [31:0] $end
$var wire 32 5" mem_read_data [31:0] $end
$var wire 32 6" mem_read_data_byte_extend [31:0] $end
$var wire 8 7" mem_read_data_byte_select [7:0] $end
$var wire 1 ` mem_read_en $end
$var wire 1 8" mem_read_ex $end
$var wire 1 9" mem_read_id $end
$var wire 1 :" mem_read_mem $end
$var wire 1 ;" mem_sc_ex $end
$var wire 1 <" mem_sc_id $end
$var wire 1 =" mem_sc_mask_id $end
$var wire 1 >" mem_signextend_ex $end
$var wire 1 ?" mem_signextend_id $end
$var wire 1 @" mem_signextend_mem $end
$var wire 1 A" mem_we_ex $end
$var wire 1 B" mem_we_id $end
$var wire 32 C" mem_write_data [31:0] $end
$var wire 32 D" mem_write_data_ex [31:0] $end
$var wire 32 E" mem_write_data_id [31:0] $end
$var wire 4 F" mem_write_en [3:0] $end
$var wire 1 G" movn_ex $end
$var wire 1 H" movn_id $end
$var wire 1 I" movz_ex $end
$var wire 1 J" movz_id $end
$var wire 32 K" pc [31:0] $end
$var wire 32 L" pc_id [31:0] $end
$var wire 32 M" pc_if [31:0] $end
$var wire 1 N" reg_we_cond_ex $end
$var wire 1 O" reg_we_ex $end
$var wire 1 P" reg_we_id $end
$var wire 1 Q" reg_we_mem $end
$var wire 1 R" reg_we_wb $end
$var wire 5 S" reg_write_addr_ex [4:0] $end
$var wire 5 T" reg_write_addr_id [4:0] $end
$var wire 5 U" reg_write_addr_mem [4:0] $end
$var wire 5 V" reg_write_addr_wb [4:0] $end
$var wire 32 W" reg_write_data_mem [31:0] $end
$var wire 32 X" reg_write_data_wb [31:0] $end
$var wire 5 Y" rs_addr_id [4:0] $end
$var wire 32 Z" rs_data_id [31:0] $end
$var wire 32 [" rs_data_id_fetch [31:0] $end
$var wire 1 \" rst $end
$var wire 1 ]" rst_id $end
$var wire 5 ^" rt_addr_id [4:0] $end
$var wire 32 _" rt_data_id [31:0] $end
$var wire 32 `" sc_result [31:0] $end
$var wire 1 a" stall $end
$var wire 1 b" stall_r $end
$scope module if_stage $end
$var wire 32 c" br_target [31:0] $end
$var wire 1 H clk $end
$var wire 1 %" en $end
$var wire 26 d" instr_id [25:0] $end
$var wire 32 e" j_addr [31:0] $end
$var wire 1 +" jump_branch $end
$var wire 1 ," jump_reg $end
$var wire 1 -" jump_target $end
$var wire 32 f" pc [31:0] $end
$var wire 32 g" pc_id [31:0] $end
$var wire 32 h" pc_id_p4 [31:0] $end
$var wire 32 i" pc_next [31:0] $end
$var wire 32 j" rs_data_in [31:0] $end
$var wire 1 \" rst $end
$scope module pc_reg $end
$var wire 1 H clk $end
$var wire 32 k" d [31:0] $end
$var wire 1 %" en $end
$var wire 1 \" r $end
$var reg 32 l" q [31:0] $end
$upscope $end
$upscope $end
$scope module pc_if2id $end
$var wire 1 H clk $end
$var wire 32 m" d [31:0] $end
$var wire 1 %" en $end
$var wire 1 \" r $end
$var reg 32 n" q [31:0] $end
$upscope $end
$scope module instr_sav_dff $end
$var wire 1 H clk $end
$var wire 32 o" d [31:0] $end
$var wire 1 $" en $end
$var wire 1 \" r $end
$var reg 32 p" q [31:0] $end
$upscope $end
$scope module stall_f_dff $end
$var wire 1 H clk $end
$var wire 1 a" d $end
$var wire 1 $" en $end
$var wire 1 \" r $end
$var reg 1 q" q $end
$upscope $end
$scope module rs_data_id_to_fetch $end
$var wire 1 H clk $end
$var wire 32 r" d [31:0] $end
$var wire 1 $" en $end
$var wire 1 \" r $end
$var reg 32 s" q [31:0] $end
$upscope $end
$scope module d_stage $end
$var wire 32 t" alu_op_x [31:0] $end
$var wire 32 u" alu_op_y [31:0] $end
$var wire 32 v" alu_result_ex [31:0] $end
$var wire 1 /" atomic_ex $end
$var wire 1 0" atomic_id $end
$var wire 1 w" forward_rs_ex $end
$var wire 1 x" forward_rs_mem $end
$var wire 1 y" forward_rt_ex $end
$var wire 1 z" forward_rt_mem $end
$var wire 6 {" funct [5:0] $end
$var wire 32 |" imm [31:0] $end
$var wire 32 }" imm_sign_extend [31:0] $end
$var wire 32 ~" imm_upper [31:0] $end
$var wire 32 !# imm_zero_extend [31:0] $end
$var wire 16 "# immediate [15:0] $end
$var wire 32 ## instr [31:0] $end
$var wire 1 $# isALUImm $end
$var wire 1 %# isBEQ $end
$var wire 1 &# isBGEZAL $end
$var wire 1 '# isBGEZNL $end
$var wire 1 (# isBGTZ $end
$var wire 1 )# isBLEZ $end
$var wire 1 *# isBLTZAL $end
$var wire 1 +# isBLTZNL $end
$var wire 1 ,# isBNE $end
$var wire 1 -# isBranchLink $end
$var wire 1 .# isEqual $end
$var wire 1 /# isGeZ $end
$var wire 1 0# isJ $end
$var wire 1 1# isJR $end
$var wire 1 2# isLA $end
$var wire 1 3# isLUI $end
$var wire 1 4# isLZ $end
$var wire 1 5# isLeZ $end
$var wire 1 6# isSLL $end
$var wire 1 7# isSLLV $end
$var wire 1 8# isSRA $end
$var wire 1 9# isSRAV $end
$var wire 1 :# isSRL $end
$var wire 1 ;# isSRLV $end
$var wire 1 <# isShift $end
$var wire 1 =# isShiftImm $end
$var wire 32 ># jr_pc [31:0] $end
$var wire 1 +" jump_branch $end
$var wire 1 ," jump_reg $end
$var wire 1 -" jump_target $end
$var wire 1 2" mem_byte $end
$var wire 1 9" mem_read $end
$var wire 1 8" mem_read_ex $end
$var wire 1 <" mem_sc_id $end
$var wire 1 =" mem_sc_mask_id $end
$var wire 1 ?" mem_signextend $end
$var wire 1 B" mem_we $end
$var wire 32 ?# mem_write_data [31:0] $end
$var wire 1 H" movn $end
$var wire 1 J" movz $end
$var wire 6 @# op [5:0] $end
$var wire 32 A# pc [31:0] $end
$var wire 5 B# rd_addr [4:0] $end
$var wire 1 C# read_from_rs $end
$var wire 1 D# read_from_rt $end
$var wire 1 P" reg_we $end
$var wire 1 O" reg_we_ex $end
$var wire 1 Q" reg_we_mem $end
$var wire 5 E# reg_write_addr [4:0] $end
$var wire 5 F# reg_write_addr_ex [4:0] $end
$var wire 5 G# reg_write_addr_mem [4:0] $end
$var wire 32 H# reg_write_data_mem [31:0] $end
$var wire 5 I# rs_addr [4:0] $end
$var wire 32 J# rs_data [31:0] $end
$var wire 32 K# rs_data_in [31:0] $end
$var wire 1 L# rs_mem_dependency $end
$var wire 5 M# rt_addr [4:0] $end
$var wire 32 N# rt_data [31:0] $end
$var wire 32 O# rt_data_in [31:0] $end
$var wire 1 P# rt_mem_dependency $end
$var wire 5 Q# shamt [4:0] $end
$var wire 32 R# shift_amount [31:0] $end
$var wire 1 a" stall $end
$var wire 1 S# use_imm $end
$var reg 4 T# alu_opcode [3:0] $end
$upscope $end
$scope module atomic $end
$var wire 1 \" ar $end
$var wire 1 H clk $end
$var wire 1 0" d $end
$var wire 1 #" en $end
$var wire 1 ]" r $end
$var reg 1 U# q $end
$upscope $end
$scope module sc $end
$var wire 1 \" ar $end
$var wire 1 H clk $end
$var wire 1 <" d $end
$var wire 1 $" en $end
$var wire 1 ]" r $end
$var reg 1 V# q $end
$upscope $end
$scope module alu_op_x_id2ex $end
$var wire 1 \" ar $end
$var wire 1 H clk $end
$var wire 32 W# d [31:0] $end
$var wire 1 $" en $end
$var wire 1 ]" r $end
$var reg 32 X# q [31:0] $end
$upscope $end
$scope module alu_op_y_id2ex $end
$var wire 1 \" ar $end
$var wire 1 H clk $end
$var wire 32 Y# d [31:0] $end
$var wire 1 $" en $end
$var wire 1 ]" r $end
$var reg 32 Z# q [31:0] $end
$upscope $end
$scope module alu_opcode_id2ex $end
$var wire 1 \" ar $end
$var wire 1 H clk $end
$var wire 4 [# d [3:0] $end
$var wire 1 $" en $end
$var wire 1 ]" r $end
$var reg 4 \# q [3:0] $end
$upscope $end
$scope module movn $end
$var wire 1 \" ar $end
$var wire 1 H clk $end
$var wire 1 H" d $end
$var wire 1 $" en $end
$var wire 1 ]" r $end
$var reg 1 ]# q $end
$upscope $end
$scope module movz $end
$var wire 1 \" ar $end
$var wire 1 H clk $end
$var wire 1 J" d $end
$var wire 1 $" en $end
$var wire 1 ]" r $end
$var reg 1 ^# q $end
$upscope $end
$scope module lw_mem_read_ex $end
$var wire 1 \" ar $end
$var wire 1 H clk $end
$var wire 1 9" d $end
$var wire 1 $" en $end
$var wire 1 ]" r $end
$var reg 1 _# q $end
$upscope $end
$scope module mem_write_data_id2ex $end
$var wire 1 \" ar $end
$var wire 1 H clk $end
$var wire 32 `# d [31:0] $end
$var wire 1 $" en $end
$var wire 1 ]" r $end
$var reg 32 a# q [31:0] $end
$upscope $end
$scope module mem_we_id2ex $end
$var wire 1 \" ar $end
$var wire 1 H clk $end
$var wire 1 b# d $end
$var wire 1 $" en $end
$var wire 1 ]" r $end
$var reg 1 c# q $end
$upscope $end
$scope module mem_read_id2ex $end
$var wire 1 \" ar $end
$var wire 1 H clk $end
$var wire 1 d# d $end
$var wire 1 $" en $end
$var wire 1 ]" r $end
$var reg 1 e# q $end
$upscope $end
$scope module mem_byte_id2ex $end
$var wire 1 \" ar $end
$var wire 1 H clk $end
$var wire 1 2" d $end
$var wire 1 $" en $end
$var wire 1 ]" r $end
$var reg 1 f# q $end
$upscope $end
$scope module mem_signextend_id2ex $end
$var wire 1 \" ar $end
$var wire 1 H clk $end
$var wire 1 ?" d $end
$var wire 1 $" en $end
$var wire 1 ]" r $end
$var reg 1 g# q $end
$upscope $end
$scope module lw_mem_read_mem $end
$var wire 1 \" ar $end
$var wire 1 H clk $end
$var wire 1 8" d $end
$var wire 1 $" en $end
$var wire 1 ]" r $end
$var reg 1 h# q $end
$upscope $end
$scope module reg_write_addr_id2ex $end
$var wire 1 \" ar $end
$var wire 1 H clk $end
$var wire 5 i# d [4:0] $end
$var wire 1 $" en $end
$var wire 1 ]" r $end
$var reg 5 j# q [4:0] $end
$upscope $end
$scope module reg_we_id2ex $end
$var wire 1 \" ar $end
$var wire 1 H clk $end
$var wire 1 P" d $end
$var wire 1 $" en $end
$var wire 1 ]" r $end
$var reg 1 k# q $end
$upscope $end
$scope module x_stage $end
$var wire 1 l# add_check $end
$var wire 1 m# add_neg_over $end
$var wire 1 n# add_pos_over $end
$var wire 1 o# alu_neg $end
$var wire 32 p# alu_op_x [31:0] $end
$var wire 32 q# alu_op_x_signed [31:0] $end
$var wire 32 r# alu_op_y [31:0] $end
$var wire 32 s# alu_op_y_signed [31:0] $end
$var wire 1 z alu_op_y_zero $end
$var wire 4 t# alu_opcode [3:0] $end
$var wire 1 } alu_overflow $end
$var wire 1 u# sub_check $end
$var wire 1 v# sub_neg_over $end
$var wire 1 w# sub_pos_over $end
$var wire 1 x# x_neg $end
$var wire 1 y# y_neg $end
$var reg 32 z# alu_result [31:0] $end
$upscope $end
$scope module alu_result_ex2mem $end
$var wire 1 H clk $end
$var wire 32 {# d [31:0] $end
$var wire 1 $" en $end
$var wire 1 \" r $end
$var reg 32 |# q [31:0] $end
$upscope $end
$scope module mem_read_ex2mem $end
$var wire 1 H clk $end
$var wire 1 }# d $end
$var wire 1 $" en $end
$var wire 1 \" r $end
$var reg 1 ~# q $end
$upscope $end
$scope module mem_byte_ex2mem $end
$var wire 1 H clk $end
$var wire 1 1" d $end
$var wire 1 $" en $end
$var wire 1 \" r $end
$var reg 1 !$ q $end
$upscope $end
$scope module mem_signextend_ex2mem $end
$var wire 1 H clk $end
$var wire 1 >" d $end
$var wire 1 $" en $end
$var wire 1 \" r $end
$var reg 1 "$ q $end
$upscope $end
$scope module reg_write_addr_ex2mem $end
$var wire 1 H clk $end
$var wire 5 #$ d [4:0] $end
$var wire 1 $" en $end
$var wire 1 \" r $end
$var reg 5 $$ q [4:0] $end
$upscope $end
$scope module reg_we_ex2mem $end
$var wire 1 H clk $end
$var wire 1 O" d $end
$var wire 1 $" en $end
$var wire 1 \" r $end
$var reg 1 %$ q $end
$upscope $end
$scope module reg_write_data_mem2wb $end
$var wire 1 H clk $end
$var wire 32 &$ d [31:0] $end
$var wire 1 $" en $end
$var wire 1 \" r $end
$var reg 32 '$ q [31:0] $end
$upscope $end
$scope module reg_write_addr_mem2wb $end
$var wire 1 H clk $end
$var wire 5 ($ d [4:0] $end
$var wire 1 $" en $end
$var wire 1 \" r $end
$var reg 5 )$ q [4:0] $end
$upscope $end
$scope module reg_we_mem2wb $end
$var wire 1 H clk $end
$var wire 1 Q" d $end
$var wire 1 $" en $end
$var wire 1 \" r $end
$var reg 1 *$ q $end
$upscope $end
$scope module w_stage $end
$var wire 1 H clk $end
$var wire 1 $" en $end
$var wire 1 R" reg_we $end
$var wire 5 +$ reg_write_addr [4:0] $end
$var wire 32 ,$ reg_write_data [31:0] $end
$var wire 5 -$ rs_addr [4:0] $end
$var wire 32 .$ rs_data [31:0] $end
$var wire 5 /$ rt_addr [4:0] $end
$var wire 32 0$ rt_data [31:0] $end
$upscope $end
$upscope $end
$scope module mips_local_store $end
$var wire 12 1$ addr [11:0] $end
$var wire 1 H clk $end
$var wire 32 2$ din [31:0] $end
$var wire 4 3$ we [3:0] $end
$var reg 32 4$ dout [31:0] $end
$scope begin column[0] $end
$upscope $end
$scope begin column[1] $end
$upscope $end
$scope begin column[2] $end
$upscope $end
$scope begin column[3] $end
$upscope $end
$upscope $end
$upscope $end
$upscope $end
$enddefinitions $end
#0
$dumpvars
bx 4$
b0 3$
b0 2$
b0 1$
bx 0$
bx /$
bx .$
bx -$
b0 ,$
b0 +$
0*$
b0 )$
b0 ($
b0 '$
b0 &$
0%$
b0 $$
b0 #$
0"$
0!$
0~#
0}#
b0 |#
b0 {#
b0 z#
0y#
0x#
0w#
0v#
0u#
b0 t#
b0 s#
b0 r#
b0 q#
b0 p#
0o#
0n#
0m#
0l#
0k#
b0 j#
bx i#
0h#
0g#
0f#
0e#
0d#
0c#
xb#
b0 a#
bx `#
0_#
0^#
0]#
b0 \#
b1101 [#
b0 Z#
bx Y#
b0 X#
bx W#
0V#
0U#
b1101 T#
xS#
b0xxxxx R#
bx Q#
0P#
bx O#
bx N#
bx M#
0L#
bx K#
bx J#
bx I#
b0 H#
b0 G#
b0 F#
bx E#
xD#
xC#
bx B#
b0 A#
bx @#
bx ?#
bx >#
x=#
x<#
x;#
x:#
x9#
x8#
x7#
x6#
x5#
x4#
x3#
x2#
x1#
x0#
x/#
x.#
x-#
x,#
x+#
x*#
x)#
x(#
x'#
x&#
x%#
x$#
bx ##
bx "#
b0xxxxxxxxxxxxxxxx !#
bx0000000000000000 ~"
bx }"
bx |"
bx {"
0z"
0y"
0x"
0w"
b0 v"
bx u"
bx t"
b0 s"
bx r"
0q"
b0 p"
bx o"
b0 n"
b0 m"
b0 l"
bx k"
bx j"
bx i"
b100 h"
b0 g"
b0 f"
bx e"
bx d"
bx c"
0b"
0a"
b0 `"
bx _"
bx ^"
0]"
0\"
b0 ["
bx Z"
bx Y"
b0 X"
b0 W"
b0 V"
b0 U"
bx T"
b0 S"
0R"
0Q"
xP"
0O"
0N"
b0 M"
b0 L"
b0 K"
xJ"
0I"
xH"
0G"
b0 F"
bx E"
b0 D"
b0 C"
xB"
0A"
0@"
x?"
0>"
0="
x<"
0;"
0:"
x9"
08"
bx 7"
b0xxxxxxxx 6"
bx 5"
bx 4"
03"
x2"
01"
00"
0/"
b0 ."
x-"
x,"
x+"
bx *"
b0 )"
b0 ("
bx '"
bx &"
1%"
1$"
x#"
b0 ""
b0 !"
b0 ~
0}
b1101 |
b0 {
1z
bx y
b0 x
bx w
b0 v
bx u
bx t
xs
xr
bx q
b0 p
b0 o
b0 n
b0 m
b0 l
b0 k
b0 j
bx i
bx h
0g
bx f
bx e
bx d
b0 c
b0 b
b0 a
0`
bx _
b0 ^
bx ]
b0 \
b0 [
bx Z
b0xxxxxxxxxxxxxxxxxxxx10 Y
0X
0W
1V
0U
0T
bx S
b0 R
b0 Q
b0 P
bx O
0N
b0 M
b0 L
bx K
0J
b0 I
0H
b0 G
b1 F
b0 E
b0xxxxxxxxxxxxxxxxxxxx10 D
b1110100011001010111001101110100011100110010111101100001011001000110010001110101001011110111010001100101011100110111010000101110011100100110010101110011011101010110110001110100 C
0B
b1 A
b1 @
b0 ?
b0 >
bx =
bx <
b0 ;
b100000000000000000 :
b1111101000 9
b11101000110010101110011011101000111001100101111011000010110010001100100011101010010111101100010011101010110100101101100011001000010111101100001011100000111000000101110011010000110010101111000 8
bx 7
bx 6
bx 5
bx 4
b1110100011001010111001101110100011100110010111101100001011001000110010001110101001011110111001101110100011100100110010101100001011011010111011101100001011101100110010100101110011101100110001101100100 3
b1 2
b0 1
00
b0 /
b0 .
b0 -
b0 ,
b0 +
b0 *
bx )
bx (
bx '
b0 &
b0 %
bx $
b0 #
b0 "
bx !
$end
#5000
0<#
b0 R#
b0 w
b0 t"
b0 W#
1/#
15#
04#
b100 i"
b100 k"
b0 J#
b0 *"
b0 >#
0=#
0+"
0-#
b10000100000000000001000 e"
b100000000000001100 c"
0-"
b10000000000000100000000000000000 y
b10000000000000100000000000000000 u"
b10000000000000100000000000000000 Y#
1P"
0b#
0#"
b0 Z"
b0 j"
b0 r"
b0 K#
b0 .$
0'#
0&#
0(#
0)#
0+#
0*#
b10000 T"
b10000 E#
b10000 i#
0,"
01#
02#
06#
0:#
08#
07#
0;#
09#
b1100 T#
b1100 |
b1100 [#
b10000000000000100000000000000000 |"
0%#
0,#
00#
1S#
0C#
0D#
13#
0$#
0B"
09"
02"
1?"
0<"
b1111 @#
b0 Y"
b0 I#
b0 -$
b10000 ^"
b10000 M#
b10000 /$
b10000 B#
b0 Q#
0H"
0J"
b10 {"
b11111111111111111000000000000010 }"
b10000000000000100000000000000000 ~"
b1000000000000010 !#
b1000000000000010 "#
b100001000000000000010 d"
b111100000100001000000000000010 '"
b111100000100001000000000000010 ##
b111100000100001000000000000010 K
b111100000100001000000000000010 $
b111100000100001000000000000010 Z
b111100000100001000000000000010 &"
b111100000100001000000000000010 o"
bx S
bx 4$
b0 u
b0 )
b0 i
b0 t
b0 (
b0 h
0s
0r
b0 q
10
1H
#10000
00
0H
#15000
bx 4$
bx S
10
1H
#20000
1\"
00
0H
b0xxxxxxxxxxxxxxxxxxxx00 D
b0xxxxxxxxxxxxxxxxxxxx00 Y
1B
1g
#25000
0V
0.#
b10000000000000100000000000000000 N#
b10000000000000100000000000000000 E"
b10000000000000100000000000000000 ?#
b10000000000000100000000000000000 `#
bx ,
bx m
bx +
bx Q
bx -
bx n
0n#
1w#
1o#
b1000 i"
b1000 k"
b1 G
1O"
1y"
bx l
bx C"
bx 2$
1y#
b10000000000000100000000000000000 z#
b10000000000000100000000000000000 ~
b10000000000000100000000000000000 v"
1W
b10000000000000100000000000000000 \
b10000000000000100000000000000000 ."
b10000000000000100000000000000000 ""
b10000000000000100000000000000000 {#
b1 %
b1 [
bx S
bx 4$
1k#
1N"
b10000 j#
b10000 S"
b10000 F#
b10000 #$
1g#
1>"
bx a#
bx D"
b1100 \#
b1100 {
b1100 t#
b10000000000000100000000000000000 Z#
b10000000000000100000000000000000 s#
0z
b10000000000000100000000000000000 x
b10000000000000100000000000000000 r#
b111100000100001000000000000010 p"
b111100000100001000000000000010 )"
b100 l"
b100 M"
b100 f"
b100 m"
b100 ^
b100 K"
10
1H
#30000
00
0H
b1111100111 1
b0xxxxxxxxxxxxxxxxxxxx01 D
b0xxxxxxxxxxxxxxxxxxxx01 Y
#35000
b1 y
b1 u"
b1 Y#
x.#
bx N#
bx E"
bx ?#
bx `#
b10001 T"
b10001 E#
b10001 i#
b11 T#
b11 |
b11 [#
b1 |"
b10001000000000000000100 e"
1C#
03#
1$#
b1101 @#
0y"
b10001 ^"
b10001 M#
b10001 /$
b0 B#
b1 {"
b1 }"
b10000000000000000 ~"
b1 !#
b1 "#
b100010000000000000001 d"
b1100 i"
b1100 k"
b10 G
b1000000000000010 ,
b1000000000000010 m
b10000000000000100000000000000000 +
b10000000000000100000000000000000 Q
b0 -
b0 n
b110100000100010000000000000001 '"
b110100000100010000000000000001 ##
b10 %
b10 [
b1 ("
b10000000000000100000000000000000 l
b10000000000000100000000000000000 C"
b10000000000000100000000000000000 2$
b10000000000000100000000000000000 W"
b10000000000000100000000000000000 H#
b10000000000000100000000000000000 &$
bx 6"
bx 4$
bx S
b110100000100010000000000000001 K
b110100000100010000000000000001 $
b110100000100010000000000000001 Z
b110100000100010000000000000001 &"
b110100000100010000000000000001 o"
b1000 l"
b1000 M"
b1000 f"
b1000 m"
b1000 ^
b1000 K"
b100 n"
b1100 c"
b1000 h"
b100 L"
b100 g"
b100 A#
b10000000000000100000000000000000 a#
b10000000000000100000000000000000 D"
b10000000000000100000000000000000 |#
b10000000000000100000000000000000 !"
1"$
1@"
b10000 $$
0z"
b10000 U"
b10000 G#
b10000 ($
1%$
1Q"
10
1H
#40000
00
0H
b1111100110 1
#45000
b11111111111111110000000000000000 y
b11111111111111110000000000000000 u"
b11111111111111110000000000000000 Y#
b11111111111111110000000000000000 |"
b1000 T"
b1000 E#
b1000 i#
b1100 T#
b1100 |
b1100 [#
b1000111111111111111100 e"
1V
0C#
13#
0D#
0$#
b1111 @#
b1000 ^"
b1000 M#
b1000 /$
b11111 B#
b11111 Q#
b111111 {"
b11111111111111111111111111111111 }"
b11111111111111110000000000000000 ~"
b1111111111111111 !#
b1111111111111111 "#
b10001111111111111111 d"
bx ,
bx m
bx +
bx Q
bx -
bx n
0o#
b10000 i"
b10000 k"
b11 G
b111100000010001111111111111111 '"
b111100000010001111111111111111 ##
x.#
bx N#
bx E"
bx ?#
bx `#
bx l
bx C"
bx 2$
0w#
0y#
b1 z#
b1 ~
b1 v"
0U
0W
b1 \
b1 ."
b1 ""
b1 {#
b10 ("
b11 %
b11 [
b111100000010001111111111111111 K
b111100000010001111111111111111 $
b111100000010001111111111111111 Z
b111100000010001111111111111111 &"
b111100000010001111111111111111 o"
bx S
bx 4$
1*$
1R"
b10000 )$
b10000 V"
b10000 +$
b10000000000000100000000000000000 '$
b10000000000000100000000000000000 X"
b10000000000000100000000000000000 ,$
b10001 j#
0y"
b10001 S"
b10001 F#
b10001 #$
bx a#
bx D"
b11 \#
b11 {
b11 t#
b1 Z#
b1 s#
b1 x
b1 r#
b110100000100010000000000000001 p"
b110100000100010000000000000001 )"
b1000 n"
b1000000000000001000 c"
b1100 h"
b1000 L"
b1000 g"
b1000 A#
b1100 l"
b1100 M"
b1100 f"
b1100 m"
b1100 ^
b1100 K"
10
1H
#50000
00
0H
b1111100101 1
#55000
b11111111111111110000000000000000 w
b11111111111111110000000000000000 t"
b11111111111111110000000000000000 W#
15#
14#
b1111111111111101 y
b1111111111111101 u"
b1111111111111101 Y#
b11111111111111110000000000000000 J#
b11111111111111110000000000000000 *"
b11111111111111110000000000000000 >#
bx Z"
bx j"
bx r"
bx K#
bx .$
b11 T#
b11 |
b11 [#
b1111111111111101 |"
b100001000111111111111110100 e"
0V
1U
b100000000000000 "
b100000000000000 L
1C#
03#
1$#
b1101 @#
1w"
b1000 Y"
b1000 I#
b1000 -$
b111101 {"
b11111111111111111111111111111101 }"
b11111111111111010000000000000000 ~"
b1111111111111101 !#
b1111111111111101 "#
b1000010001111111111111101 d"
b10100 i"
b10100 k"
b100 G
0n#
1w#
1o#
b100000000000000 j
b100000000000000 *
b100000000000000 k
b100000000000000 b
b100000000000000 &
b100000000000000 c
b110101000010001111111111111101 '"
b110101000010001111111111111101 ##
b100 %
b100 [
b11 ("
1y#
b11111111111111110000000000000000 z#
b11111111111111110000000000000000 ~
b11111111111111110000000000000000 v"
b11111111111111110000000000000000 \
b11111111111111110000000000000000 ."
b11111111111111110000000000000000 ""
b11111111111111110000000000000000 {#
1.#
b11111111111111110000000000000000 N#
b11111111111111110000000000000000 E"
b11111111111111110000000000000000 ?#
b11111111111111110000000000000000 `#
b1 W"
b1 H#
b1 &$
bx 4$
bx S
b110101000010001111111111111101 K
b110101000010001111111111111101 $
b110101000010001111111111111101 Z
b110101000010001111111111111101 &"
b110101000010001111111111111101 o"
b10000 l"
b10000 M"
b10000 f"
b10000 m"
b10000 ^
b10000 K"
b1100 n"
b1000000000000000100 c"
b10000 h"
b1100 L"
b1100 g"
b1100 A#
b111100000010001111111111111111 p"
b111100000010001111111111111111 )"
b11111111111111110000000000000000 Z#
b11111111111111110000000000000000 s#
b11111111111111110000000000000000 x
b11111111111111110000000000000000 r#
b1100 \#
b1100 {
b1100 t#
b1000 j#
1y"
b1000 S"
b1000 F#
b1000 #$
b1 |#
b1 !"
b10001 $$
b10001 U"
b10001 G#
b10001 ($
10
1H
#60000
00
0H
b1111100100 1
