lab3/starter/sim/tests/sb/streamwave.vcd
$date
	Mon Mar  5 20:57:56 2018
$end
$version
	Icarus Verilog
$end
$timescale
	1ps
$end
$scope module userlogic_test $end
$var wire 32 ! data_out [31:0] $end
$var wire 15 " input_buffer_addr [14:0] $end
$var wire 15 # output_buffer_addr [14:0] $end
$var wire 32 $ ul_instr [31:0] $end
$var wire 32 % ul_instr_addr [31:0] $end
$var wire 32 & ul_read_addr [31:0] $end
$var wire 32 ' ul_read_data [31:0] $end
$var wire 32 ( ul_status [31:0] $end
$var wire 32 ) ul_test [31:0] $end
$var wire 32 * ul_write_addr [31:0] $end
$var wire 32 + ul_write_data [31:0] $end
$var wire 16 , ul_write_data_hi [15:0] $end
$var wire 16 - ul_write_data_lo [15:0] $end
$var wire 2 . ul_write_en_hi [1:0] $end
$var wire 2 / ul_write_en_lo [1:0] $end
$var reg 1 0 clk $end
$var reg 32 1 cycle_count [32:1] $end
$var integer 32 2 dump_vars [31:0] $end
$var reg 8192 3 dump_vars_filename [8192:1] $end
$var integer 32 4 i [31:0] $end
$var reg 10 5 image_n_columns [9:0] $end
$var reg 10 6 image_n_rows [9:0] $end
$var reg 8192 7 input_buffer_filename [8192:1] $end
$var reg 8192 8 instr_mem_filename [8192:1] $end
$var reg 32 9 num_cycles [32:1] $end
$var reg 33 : out_end_addr [32:0] $end
$var reg 33 ; out_start_addr [32:0] $end
$var integer 32 < outfile [31:0] $end
$var reg 8192 = output_buffer_filename [8192:1] $end
$var reg 15 > read_addr [14:0] $end
$var integer 32 ? read_input_buffer [31:0] $end
$var integer 32 @ read_instr_mem [31:0] $end
$var integer 32 A result [31:0] $end
$var reg 1 B rst_n $end
$var reg 8192 C test_result_filename [8192:1] $end
$var reg 32 D ul_command [31:0] $end
$var integer 32 E write_output_buffer [31:0] $end
$var integer 32 F write_test_result [31:0] $end
$scope module instr_mem $end
$var wire 14 G addr [13:0] $end
$var wire 1 H clk $end
$var wire 32 I din [31:0] $end
$var wire 1 J we $end
$var reg 32 K dout [31:0] $end
$upscope $end
$scope module input_buffer $end
$var wire 15 L addr [14:0] $end
$var wire 1 H clk $end
$var wire 32 M din [31:0] $end
$var wire 1 N we $end
$var reg 32 O dout [31:0] $end
$upscope $end
$scope module output_buffer $end
$var wire 15 P addr [14:0] $end
$var wire 1 H clk $end
$var wire 32 Q din [31:0] $end
$var wire 4 R we [3:0] $end
$var reg 32 S dout [31:0] $end
$scope begin column[0] $end
$upscope $end
$scope begin column[1] $end
$upscope $end
$scope begin column[2] $end
$upscope $end
$scope begin column[3] $end
$upscope $end
$upscope $end
$scope module ul $end
$var wire 1 T addr_cmd $end
$var wire 1 U addr_iobuf $end
$var wire 1 V addr_local $end
$var wire 1 W addr_status $end
$var wire 1 X addr_test $end
$var wire 1 H clk $end
$var wire 32 Y command [31:0] $end
$var wire 32 Z instr [31:0] $end
$var wire 32 [ instr_addr [31:0] $end
$var wire 32 \ mips_addr [31:0] $end
$var wire 32 ] mips_local_read_data [31:0] $end
$var wire 32 ^ mips_pc [31:0] $end
$var wire 32 _ mips_read_data [31:0] $end
$var wire 1 ` mips_read_en $end
$var wire 4 a mips_write_en [3:0] $end
$var wire 32 b read_addr_hi [31:0] $end
$var wire 32 c read_addr_lo [31:0] $end
$var wire 32 d read_data [31:0] $end
$var wire 16 e read_data_hi [15:0] $end
$var wire 16 f read_data_lo [15:0] $end
$var wire 1 g rst_n $end
$var wire 32 h status [31:0] $end
$var wire 32 i test [31:0] $end
$var wire 32 j write_addr_hi [31:0] $end
$var wire 32 k write_addr_lo [31:0] $end
$var wire 32 l write_data [31:0] $end
$var wire 16 m write_data_hi [15:0] $end
$var wire 16 n write_data_lo [15:0] $end
$var wire 2 o write_en_hi [1:0] $end
$var wire 2 p write_en_lo [1:0] $end
$var reg 32 q cmd_d [31:0] $end
$var reg 1 r read_cmd_d $end
$var reg 1 s read_iobuf_d $end
$var reg 32 t status_reg [31:0] $end
$var reg 32 u test_reg [31:0] $end
$scope module cpu $end
$var wire 32 v alu_op_x_ex [31:0] $end
$var wire 32 w alu_op_x_id [31:0] $end
$var wire 32 x alu_op_y_ex [31:0] $end
$var wire 32 y alu_op_y_id [31:0] $end
$var wire 1 z alu_op_y_zero_ex $end
$var wire 4 { alu_opcode_ex [3:0] $end
$var wire 4 | alu_opcode_id [3:0] $end
$var wire 1 } alu_overflow $end
$var wire 32 ~ alu_result_ex [31:0] $end
$var wire 32 !" alu_result_mem [31:0] $end
$var wire 32 "" alu_sc_result_ex [31:0] $end
$var wire 1 #" atomic_en $end
$var wire 1 H clk $end
$var wire 1 $" en $end
$var wire 1 %" en_if $end
$var wire 32 &" instr [31:0] $end
$var wire 32 '" instr_id [31:0] $end
$var wire 30 (" instr_number_id [29:0] $end
$var wire 32 )" instr_sav [31:0] $end
$var wire 32 *" jr_pc_id [31:0] $end
$var wire 1 +" jump_branch_id $end
$var wire 1 ," jump_reg_id $end
$var wire 1 -" jump_target_id $end
$var wire 32 ." mem_addr [31:0] $end
$var wire 1 /" mem_atomic_ex $end
$var wire 1 0" mem_atomic_id $end
$var wire 1 1" mem_atomic_mem $end
$var wire 1 2" mem_byte_ex $end
$var wire 1 3" mem_byte_id $end
$var wire 1 4" mem_byte_mem $end
$var wire 1 5" mem_ll_ex $end
$var wire 1 6" mem_ll_id $end
$var wire 32 7" mem_out [31:0] $end
$var wire 32 8" mem_read_data [31:0] $end
$var wire 32 9" mem_read_data_byte_extend [31:0] $end
$var wire 8 :" mem_read_data_byte_select [7:0] $end
$var wire 1 ` mem_read_en $end
$var wire 1 ;" mem_read_ex $end
$var wire 1 <" mem_read_id $end
$var wire 1 =" mem_read_mem $end
$var wire 1 >" mem_sc_ex $end
$var wire 1 ?" mem_sc_id $end
$var wire 1 @" mem_sc_mask_id $end
$var wire 1 A" mem_signextend_ex $end
$var wire 1 B" mem_signextend_id $end
$var wire 1 C" mem_signextend_mem $end
$var wire 1 D" mem_we_ex $end
$var wire 1 E" mem_we_id $end
$var wire 32 F" mem_write_data [31:0] $end
$var wire 32 G" mem_write_data_ex [31:0] $end
$var wire 32 H" mem_write_data_id [31:0] $end
$var wire 4 I" mem_write_en [3:0] $end
$var wire 1 J" movn_ex $end
$var wire 1 K" movn_id $end
$var wire 1 L" movz_ex $end
$var wire 1 M" movz_id $end
$var wire 32 N" pc [31:0] $end
$var wire 32 O" pc_id [31:0] $end
$var wire 32 P" pc_if [31:0] $end
$var wire 1 Q" reg_we_cond_ex $end
$var wire 1 R" reg_we_ex $end
$var wire 1 S" reg_we_id $end
$var wire 1 T" reg_we_mem $end
$var wire 1 U" reg_we_wb $end
$var wire 5 V" reg_write_addr_ex [4:0] $end
$var wire 5 W" reg_write_addr_id [4:0] $end
$var wire 5 X" reg_write_addr_mem [4:0] $end
$var wire 5 Y" reg_write_addr_wb [4:0] $end
$var wire 32 Z" reg_write_data_mem [31:0] $end
$var wire 32 [" reg_write_data_wb [31:0] $end
$var wire 5 \" rs_addr_id [4:0] $end
$var wire 32 ]" rs_data [31:0] $end
$var wire 32 ^" rs_data_id [31:0] $end
$var wire 32 _" rs_data_id_fetch [31:0] $end
$var wire 1 `" rst $end
$var wire 1 a" rst_ex $end
$var wire 1 b" rst_id $end
$var wire 5 c" rt_addr_id [4:0] $end
$var wire 32 d" rt_data [31:0] $end
$var wire 32 e" rt_data_id [31:0] $end
$var wire 32 f" sc_result [31:0] $end
$var wire 1 g" stall $end
$var wire 1 h" stall_r $end
$scope module if_stage $end
$var wire 32 i" br_target [31:0] $end
$var wire 1 H clk $end
$var wire 1 %" en $end
$var wire 26 j" instr_id [25:0] $end
$var wire 32 k" j_addr [31:0] $end
$var wire 1 +" jump_branch $end
$var wire 1 ," jump_reg $end
$var wire 1 -" jump_target $end
$var wire 32 l" pc [31:0] $end
$var wire 32 m" pc_id [31:0] $end
$var wire 32 n" pc_id_p4 [31:0] $end
$var wire 32 o" pc_next [31:0] $end
$var wire 32 p" rs_data_in [31:0] $end
$var wire 1 `" rst $end
$scope module pc_reg $end
$var wire 1 H clk $end
$var wire 32 q" d [31:0] $end
$var wire 1 %" en $end
$var wire 1 `" r $end
$var reg 32 r" q [31:0] $end
$upscope $end
$upscope $end
$scope module pc_if2id $end
$var wire 1 H clk $end
$var wire 32 s" d [31:0] $end
$var wire 1 %" en $end
$var wire 1 `" r $end
$var reg 32 t" q [31:0] $end
$upscope $end
$scope module instr_sav_dff $end
$var wire 1 H clk $end
$var wire 32 u" d [31:0] $end
$var wire 1 $" en $end
$var wire 1 `" r $end
$var reg 32 v" q [31:0] $end
$upscope $end
$scope module stall_f_dff $end
$var wire 1 H clk $end
$var wire 1 g" d $end
$var wire 1 $" en $end
$var wire 1 `" r $end
$var reg 1 w" q $end
$upscope $end
$scope module rs_data_id_to_fetch $end
$var wire 1 H clk $end
$var wire 32 x" d [31:0] $end
$var wire 1 $" en $end
$var wire 1 `" r $end
$var reg 32 y" q [31:0] $end
$upscope $end
$scope module rst_id_ex $end
$var wire 1 H clk $end
$var wire 1 b" d $end
$var wire 1 $" en $end
$var wire 1 `" r $end
$var reg 1 z" q $end
$upscope $end
$scope module d_stage $end
$var wire 32 {" alu_op_x [31:0] $end
$var wire 32 |" alu_op_y [31:0] $end
$var wire 32 }" alu_result_ex [31:0] $end
$var wire 1 /" atomic_ex $end
$var wire 1 0" atomic_id $end
$var wire 1 1" atomic_mem $end
$var wire 1 ~" forward_rs_ex $end
$var wire 1 !# forward_rs_mem $end
$var wire 1 "# forward_rt_ex $end
$var wire 1 ## forward_rt_mem $end
$var wire 6 $# funct [5:0] $end
$var wire 32 %# imm [31:0] $end
$var wire 32 &# imm_sign_extend [31:0] $end
$var wire 32 '# imm_upper [31:0] $end
$var wire 32 (# imm_zero_extend [31:0] $end
$var wire 16 )# immediate [15:0] $end
$var wire 32 *# instr [31:0] $end
$var wire 1 +# isALUImm $end
$var wire 1 ,# isBEQ $end
$var wire 1 -# isBGEZAL $end
$var wire 1 .# isBGEZNL $end
$var wire 1 /# isBGTZ $end
$var wire 1 0# isBLEZ $end
$var wire 1 1# isBLTZAL $end
$var wire 1 2# isBLTZNL $end
$var wire 1 3# isBNE $end
$var wire 1 4# isBranchLink $end
$var wire 1 5# isEqual $end
$var wire 1 6# isGeZ $end
$var wire 1 7# isJ $end
$var wire 1 8# isJAL $end
$var wire 1 9# isJALR $end
$var wire 1 :# isJR $end
$var wire 1 ;# isLA $end
$var wire 1 <# isLUI $end
$var wire 1 =# isLZ $end
$var wire 1 ># isLeZ $end
$var wire 1 ?# isSLL $end
$var wire 1 @# isSLLV $end
$var wire 1 A# isSRA $end
$var wire 1 B# isSRAV $end
$var wire 1 C# isSRL $end
$var wire 1 D# isSRLV $end
$var wire 1 E# isShift $end
$var wire 1 F# isShiftImm $end
$var wire 32 G# jr_pc [31:0] $end
$var wire 1 +" jump_branch $end
$var wire 1 ," jump_reg $end
$var wire 1 -" jump_target $end
$var wire 1 3" mem_byte $end
$var wire 1 5" mem_ll_ex $end
$var wire 1 6" mem_ll_id $end
$var wire 1 <" mem_read $end
$var wire 1 ;" mem_read_ex $end
$var wire 1 ?" mem_sc_id $end
$var wire 1 @" mem_sc_mask_id $end
$var wire 1 B" mem_signextend $end
$var wire 1 E" mem_we $end
$var wire 32 H# mem_write_data [31:0] $end
$var wire 1 K" movn $end
$var wire 1 M" movz $end
$var wire 6 I# op [5:0] $end
$var wire 32 J# pc [31:0] $end
$var wire 32 K# pc_id_p8 [31:0] $end
$var wire 5 L# rd_addr [4:0] $end
$var wire 1 M# read_from_rs $end
$var wire 1 N# read_from_rt $end
$var wire 1 S" reg_we $end
$var wire 1 R" reg_we_ex $end
$var wire 1 T" reg_we_mem $end
$var wire 5 O# reg_write_addr [4:0] $end
$var wire 5 P# reg_write_addr_ex [4:0] $end
$var wire 5 Q# reg_write_addr_mem [4:0] $end
$var wire 32 R# reg_write_data_mem [31:0] $end
$var wire 5 S# rs_addr [4:0] $end
$var wire 32 T# rs_data [31:0] $end
$var wire 32 U# rs_data_in [31:0] $end
$var wire 1 V# rs_mem_dependency $end
$var wire 5 W# rt_addr [4:0] $end
$var wire 32 X# rt_data [31:0] $end
$var wire 32 Y# rt_data_in [31:0] $end
$var wire 1 Z# rt_mem_dependency $end
$var wire 5 [# shamt [4:0] $end
$var wire 32 \# shift_amount [31:0] $end
$var wire 1 g" stall $end
$var wire 1 ]# use_imm $end
$var reg 4 ^# alu_opcode [3:0] $end
$upscope $end
$scope module atomic $end
$var wire 1 `" ar $end
$var wire 1 H clk $end
$var wire 1 0" d $end
$var wire 1 #" en $end
$var wire 1 b" r $end
$var reg 1 _# q $end
$upscope $end
$scope module atomic_mem $end
$var wire 1 H clk $end
$var wire 1 /" d $end
$var wire 1 $" en $end
$var wire 1 `" r $end
$var reg 1 `# q $end
$upscope $end
$scope module sc $end
$var wire 1 `" ar $end
$var wire 1 H clk $end
$var wire 1 ?" d $end
$var wire 1 $" en $end
$var wire 1 b" r $end
$var reg 1 a# q $end
$upscope $end
$scope module ll $end
$var wire 1 `" ar $end
$var wire 1 H clk $end
$var wire 1 6" d $end
$var wire 1 $" en $end
$var wire 1 b" r $end
$var reg 1 b# q $end
$upscope $end
$scope module alu_op_x_id2ex $end
$var wire 1 `" ar $end
$var wire 1 H clk $end
$var wire 32 c# d [31:0] $end
$var wire 1 $" en $end
$var wire 1 b" r $end
$var reg 32 d# q [31:0] $end
$upscope $end
$scope module alu_op_y_id2ex $end
$var wire 1 `" ar $end
$var wire 1 H clk $end
$var wire 32 e# d [31:0] $end
$var wire 1 $" en $end
$var wire 1 b" r $end
$var reg 32 f# q [31:0] $end
$upscope $end
$scope module alu_opcode_id2ex $end
$var wire 1 `" ar $end
$var wire 1 H clk $end
$var wire 4 g# d [3:0] $end
$var wire 1 $" en $end
$var wire 1 b" r $end
$var reg 4 h# q [3:0] $end
$upscope $end
$scope module movn $end
$var wire 1 `" ar $end
$var wire 1 H clk $end
$var wire 1 K" d $end
$var wire 1 $" en $end
$var wire 1 b" r $end
$var reg 1 i# q $end
$upscope $end
$scope module movz $end
$var wire 1 `" ar $end
$var wire 1 H clk $end
$var wire 1 M" d $end
$var wire 1 $" en $end
$var wire 1 b" r $end
$var reg 1 j# q $end
$upscope $end
$scope module lw_mem_read_ex $end
$var wire 1 `" ar $end
$var wire 1 H clk $end
$var wire 1 <" d $end
$var wire 1 $" en $end
$var wire 1 b" r $end
$var reg 1 k# q $end
$upscope $end
$scope module mem_write_data_id2ex $end
$var wire 1 `" ar $end
$var wire 1 H clk $end
$var wire 32 l# d [31:0] $end
$var wire 1 $" en $end
$var wire 1 b" r $end
$var reg 32 m# q [31:0] $end
$upscope $end
$scope module mem_we_id2ex $end
$var wire 1 `" ar $end
$var wire 1 H clk $end
$var wire 1 n# d $end
$var wire 1 $" en $end
$var wire 1 b" r $end
$var reg 1 o# q $end
$upscope $end
$scope module mem_read_id2ex $end
$var wire 1 `" ar $end
$var wire 1 H clk $end
$var wire 1 p# d $end
$var wire 1 $" en $end
$var wire 1 b" r $end
$var reg 1 q# q $end
$upscope $end
$scope module mem_byte_id2ex $end
$var wire 1 `" ar $end
$var wire 1 H clk $end
$var wire 1 3" d $end
$var wire 1 $" en $end
$var wire 1 b" r $end
$var reg 1 r# q $end
$upscope $end
$scope module mem_signextend_id2ex $end
$var wire 1 `" ar $end
$var wire 1 H clk $end
$var wire 1 B" d $end
$var wire 1 $" en $end
$var wire 1 b" r $end
$var reg 1 s# q $end
$upscope $end
$scope module lw_mem_read_mem $end
$var wire 1 `" ar $end
$var wire 1 H clk $end
$var wire 1 ;" d $end
$var wire 1 $" en $end
$var wire 1 a" r $end
$var reg 1 t# q $end
$upscope $end
$scope module reg_write_addr_id2ex $end
$var wire 1 `" ar $end
$var wire 1 H clk $end
$var wire 5 u# d [4:0] $end
$var wire 1 $" en $end
$var wire 1 b" r $end
$var reg 5 v# q [4:0] $end
$upscope $end
$scope module reg_we_id2ex $end
$var wire 1 `" ar $end
$var wire 1 H clk $end
$var wire 1 S" d $end
$var wire 1 $" en $end
$var wire 1 b" r $end
$var reg 1 w# q $end
$upscope $end
$scope module x_stage $end
$var wire 1 x# add_check $end
$var wire 1 y# add_neg_over $end
$var wire 1 z# add_pos_over $end
$var wire 1 {# alu_neg $end
$var wire 32 |# alu_op_x [31:0] $end
$var wire 32 }# alu_op_x_signed [31:0] $end
$var wire 32 ~# alu_op_y [31:0] $end
$var wire 32 !$ alu_op_y_signed [31:0] $end
$var wire 1 z alu_op_y_zero $end
$var wire 4 "$ alu_opcode [3:0] $end
$var wire 1 } alu_overflow $end
$var wire 1 #$ sub_check $end
$var wire 1 $$ sub_neg_over $end
$var wire 1 %$ sub_pos_over $end
$var wire 1 &$ x_neg $end
$var wire 1 '$ y_neg $end
$var reg 32 ($ alu_result [31:0] $end
$upscope $end
$scope module alu_result_ex2mem $end
$var wire 1 H clk $end
$var wire 32 )$ d [31:0] $end
$var wire 1 $" en $end
$var wire 1 `" r $end
$var reg 32 *$ q [31:0] $end
$upscope $end
$scope module mem_read_ex2mem $end
$var wire 1 H clk $end
$var wire 1 +$ d $end
$var wire 1 $" en $end
$var wire 1 `" r $end
$var reg 1 ,$ q $end
$upscope $end
$scope module mem_byte_ex2mem $end
$var wire 1 H clk $end
$var wire 1 2" d $end
$var wire 1 $" en $end
$var wire 1 `" r $end
$var reg 1 -$ q $end
$upscope $end
$scope module mem_signextend_ex2mem $end
$var wire 1 H clk $end
$var wire 1 A" d $end
$var wire 1 $" en $end
$var wire 1 `" r $end
$var reg 1 .$ q $end
$upscope $end
$scope module reg_write_addr_ex2mem $end
$var wire 1 H clk $end
$var wire 5 /$ d [4:0] $end
$var wire 1 $" en $end
$var wire 1 `" r $end
$var reg 5 0$ q [4:0] $end
$upscope $end
$scope module reg_we_ex2mem $end
$var wire 1 H clk $end
$var wire 1 R" d $end
$var wire 1 $" en $end
$var wire 1 `" r $end
$var reg 1 1$ q $end
$upscope $end
$scope module reg_write_data_mem2wb $end
$var wire 1 H clk $end
$var wire 32 2$ d [31:0] $end
$var wire 1 $" en $end
$var wire 1 `" r $end
$var reg 32 3$ q [31:0] $end
$upscope $end
$scope module reg_write_addr_mem2wb $end
$var wire 1 H clk $end
$var wire 5 4$ d [4:0] $end
$var wire 1 $" en $end
$var wire 1 `" r $end
$var reg 5 5$ q [4:0] $end
$upscope $end
$scope module reg_we_mem2wb $end
$var wire 1 H clk $end
$var wire 1 T" d $end
$var wire 1 $" en $end
$var wire 1 `" r $end
$var reg 1 6$ q $end
$upscope $end
$scope module w_stage $end
$var wire 1 H clk $end
$var wire 1 $" en $end
$var wire 1 U" reg_we $end
$var wire 5 7$ reg_write_addr [4:0] $end
$var wire 32 8$ reg_write_data [31:0] $end
$var wire 5 9$ rs_addr [4:0] $end
$var wire 32 :$ rs_data [31:0] $end
$var wire 5 ;$ rt_addr [4:0] $end
$var wire 32 <$ rt_data [31:0] $end
$upscope $end
$upscope $end
$scope module mips_local_store $end
$var wire 12 =$ addr [11:0] $end
$var wire 1 H clk $end
$var wire 32 >$ din [31:0] $end
$var wire 4 ?$ we [3:0] $end
$var reg 32 @$ dout [31:0] $end
$scope begin column[0] $end
$upscope $end
$scope begin column[1] $end
$upscope $end
$scope begin column[2] $end
$upscope $end
$scope begin column[3] $end
$upscope $end
$upscope $end
$upscope $end
$upscope $end
$enddefinitions $end
#0
$dumpvars
bx @$
b0 ?$
b0 >$
b0 =$
bx <$
bx ;$
bx :$
bx 9$
b0 8$
b0 7$
06$
b0 5$
b0 4$
b0 3$
b0 2$
01$
b0 0$
b0 /$
0.$
0-$
0,$
0+$
b0 *$
b0 )$
b0 ($
0'$
0&$
0%$
0$$
0#$
b0 "$
b0 !$
b0 ~#
b0 }#
b0 |#
0{#
0z#
0y#
0x#
0w#
b0 v#
bx u#
0t#
0s#
0r#
0q#
0p#
0o#
xn#
b0 m#
bx l#
0k#
0j#
0i#
b0 h#
b1101 g#
b0 f#
bx e#
b0 d#
bx c#
0b#
0a#
0`#
0_#
b1101 ^#
x]#
b0xxxxx \#
bx [#
0Z#
bx Y#
bx X#
bx W#
0V#
bx U#
bx T#
bx S#
b0 R#
b0 Q#
b0 P#
bx O#
xN#
xM#
bx L#
b1000 K#
b0 J#
bx I#
bx H#
bx G#
xF#
xE#
xD#
xC#
xB#
xA#
x@#
x?#
x>#
x=#
x<#
x;#
x:#
x9#
x8#
x7#
x6#
x5#
x4#
x3#
x2#
x1#
x0#
x/#
x.#
x-#
x,#
x+#
bx *#
bx )#
b0xxxxxxxxxxxxxxxx (#
bx0000000000000000 '#
bx &#
bx %#
bx $#
0##
0"#
0!#
0~"
b0 }"
bx |"
bx {"
0z"
b0 y"
bx x"
0w"
b0 v"
bx u"
b0 t"
b0 s"
b0 r"
bx q"
bx p"
bx o"
b100 n"
b0 m"
b0 l"
bx k"
bx j"
bx i"
0h"
0g"
b0 f"
bx e"
bx d"
bx c"
0b"
0a"
0`"
b0 _"
bx ^"
bx ]"
bx \"
b0 ["
b0 Z"
b0 Y"
b0 X"
bx W"
b0 V"
0U"
0T"
xS"
0R"
0Q"
b0 P"
b0 O"
b0 N"
xM"
0L"
xK"
0J"
b0 I"
bx H"
b0 G"
b0 F"
xE"
0D"
0C"
xB"
0A"
x@"
x?"
0>"
0="
x<"
0;"
bx :"
b0xxxxxxxx 9"
bx 8"
bx 7"
x6"
05"
04"
x3"
02"
01"
x0"
0/"
b0 ."
x-"
x,"
x+"
bx *"
b0 )"
b0 ("
bx '"
bx &"
1%"
1$"
x#"
b0 ""
b0 !"
b0 ~
0}
b1101 |
b0 {
1z
bx y
b0 x
bx w
b0 v
bx u
bx t
xs
xr
bx q
b0 p
b0 o
b0 n
b0 m
b0 l
b0 k
b0 j
bx i
bx h
0g
bx f
bx e
bx d
b0 c
b0 b
b0 a
0`
bx _
b0 ^
bx ]
b0 \
b0 [
bx Z
b0xxxxxxxxxxxxxxxxxxxx10 Y
0X
0W
1V
0U
0T
bx S
b0 R
b0 Q
b0 P
bx O
0N
b0 M
b0 L
bx K
0J
b0 I
0H
b0 G
b1 F
b0 E
b0xxxxxxxxxxxxxxxxxxxx10 D
b111010001100101011100110111010001110011001011110111001101100010001011110111010001100101011100110111010000101110011100100110010101110011011101010110110001110100 C
0B
b1 A
b1 @
b0 ?
b0 >
bx =
bx <
b0 ;
b100000000000000000 :
b1111101000 9
b1110100011001010111001101110100011100110010111101110011011000100010111101100010011101010110100101101100011001000010111101100001011100000111000000101110011010000110010101111000 8
bx 7
bx 6
bx 5
bx 4
b111010001100101011100110111010001110011001011110111001101100010001011110111001101110100011100100110010101100001011011010111011101100001011101100110010100101110011101100110001101100100 3
b1 2
b0 1
00
b0 /
b0 .
b0 -
b0 ,
b0 +
b0 *
bx )
bx (
bx '
b0 &
b0 %
bx $
b0 #
b0 "
bx !
$end
#5000
0E#
b0 \#
b0 w
b0 {"
b0 c#
16#
1>#
0=#
b100 o"
b100 q"
0-"
b0 *"
b0 G#
b0 ]"
b0 p"
b0 T#
b10000100000000000001000 k"
0F#
b10000000000000100000000000000000 y
b10000000000000100000000000000000 |"
b10000000000000100000000000000000 e#
0+"
04#
b10000 W"
b10000 O#
b10000 u#
0,"
b100000000000001100 i"
1S"
0n#
0#"
0@"
00"
b0 ^"
b0 x"
b0 U#
b0 :$
0.#
0-#
0/#
00#
02#
01#
0:#
0;#
09#
0?#
0C#
0A#
0@#
0D#
0B#
b1100 ^#
b1100 |
b1100 g#
b10000000000000100000000000000000 %#
0,#
03#
07#
08#
1]#
0M#
0N#
1<#
0+#
0E"
0<"
03"
1B"
0?"
06"
b1111 I#
b0 \"
b0 S#
b0 9$
b10000 c"
b10000 W#
b10000 ;$
b10000 L#
b0 [#
0K"
0M"
b10 $#
b11111111111111111000000000000010 &#
b10000000000000100000000000000000 '#
b1000000000000010 (#
b1000000000000010 )#
b100001000000000000010 j"
b111100000100001000000000000010 '"
b111100000100001000000000000010 *#
b111100000100001000000000000010 K
b111100000100001000000000000010 $
b111100000100001000000000000010 Z
b111100000100001000000000000010 &"
b111100000100001000000000000010 u"
bx S
bx @$
b0 u
b0 )
b0 i
b0 t
b0 (
b0 h
0s
0r
b0 q
10
1H
#10000
00
0H
#15000
bx @$
bx S
10
1H
#20000
1`"
00
0H
b0xxxxxxxxxxxxxxxxxxxx00 D
b0xxxxxxxxxxxxxxxxxxxx00 Y
1B
1g
#25000
0V
05#
b10000000000000100000000000000000 H"
b10000000000000100000000000000000 H#
b10000000000000100000000000000000 l#
b10000000000000100000000000000000 d"
b10000000000000100000000000000000 X#
bx ,
bx m
bx +
bx Q
bx -
bx n
0z#
1%$
1{#
b10000000000000100000000000000000 ""
b10000000000000100000000000000000 )$
b1000 o"
b1000 q"
b1 G
1R"
1"#
bx l
bx F"
bx >$
1'$
b10000000000000100000000000000000 ($
b10000000000000100000000000000000 ~
b10000000000000100000000000000000 }"
1W
b10000000000000100000000000000000 \
b10000000000000100000000000000000 ."
b1 %
b1 [
bx S
bx @$
1w#
1Q"
b10000 v#
b10000 V"
b10000 P#
b10000 /$
1s#
1A"
bx m#
bx G"
b1100 h#
b1100 {
b1100 "$
b10000000000000100000000000000000 f#
b10000000000000100000000000000000 !$
0z
b10000000000000100000000000000000 x
b10000000000000100000000000000000 ~#
b111100000100001000000000000010 v"
b111100000100001000000000000010 )"
b100 r"
b100 P"
b100 l"
b100 s"
b100 ^
b100 N"
10
1H
#30000
00
0H
b1111100111 1
b0xxxxxxxxxxxxxxxxxxxx01 D
b0xxxxxxxxxxxxxxxxxxxx01 Y
#35000
b1 y
b1 |"
b1 e#
b10001 W"
b10001 O#
b10001 u#
x5#
bx H"
bx H#
bx l#
bx d"
bx X#
b11 ^#
b11 |
b11 g#
b1 %#
b10001000000000000000100 k"
1M#
0<#
1+#
b1101 I#
0"#
b10001 c"
b10001 W#
b10001 ;$
b0 L#
b1 $#
b1 &#
b10000000000000000 '#
b1 (#
b1 )#
b100010000000000000001 j"
b1100 o"
b1100 q"
b10 G
b1000000000000010 ,
b1000000000000010 m
b10000000000000100000000000000000 +
b10000000000000100000000000000000 Q
b0 -
b0 n
b110100000100010000000000000001 '"
b110100000100010000000000000001 *#
b10 %
b10 [
b1 ("
b10000000000000100000000000000000 l
b10000000000000100000000000000000 F"
b10000000000000100000000000000000 >$
b10000000000000100000000000000000 Z"
b10000000000000100000000000000000 R#
b10000000000000100000000000000000 2$
bx 9"
bx @$
bx S
b110100000100010000000000000001 K
b110100000100010000000000000001 $
b110100000100010000000000000001 Z
b110100000100010000000000000001 &"
b110100000100010000000000000001 u"
b1000 r"
b1000 P"
b1000 l"
b1000 s"
b1000 ^
b1000 N"
b100 t"
b1100 K#
b1100 i"
b1000 n"
b100 O"
b100 m"
b100 J#
b10000000000000100000000000000000 m#
b10000000000000100000000000000000 G"
b10000000000000100000000000000000 *$
b10000000000000100000000000000000 !"
1.$
1C"
b10000 0$
0##
b10000 X"
b10000 Q#
b10000 4$
11$
1T"
10
1H
#40000
00
0H
b1111100110 1
#45000
b0 y
b0 |"
b0 e#
b1000 W"
b1000 O#
b1000 u#
b0 %#
b1100 ^#
b1100 |
b1100 g#
b1000000000000000000000 k"
1V
0M#
1<#
0N#
0+#
b1111 I#
b1000 c"
b1000 W#
b1000 ;$
b0 $#
b0 &#
b0 '#
b0 (#
b0 )#
b10000000000000000000 j"
bx ,
bx m
bx +
bx Q
bx -
bx n
0{#
b1 ""
b1 )$
b10000 o"
b10000 q"
b11 G
b111100000010000000000000000000 '"
b111100000010000000000000000000 *#
x5#
bx H"
bx H#
bx l#
bx d"
bx X#
bx l
bx F"
bx >$
0%$
0'$
b1 ($
b1 ~
b1 }"
0U
0W
b1 \
b1 ."
b10 ("
b11 %
b11 [
b111100000010000000000000000000 K
b111100000010000000000000000000 $
b111100000010000000000000000000 Z
b111100000010000000000000000000 &"
b111100000010000000000000000000 u"
bx S
bx @$
16$
1U"
b10000 5$
b10000 Y"
b10000 7$
b10000000000000100000000000000000 3$
b10000000000000100000000000000000 ["
b10000000000000100000000000000000 8$
b10001 v#
0"#
b10001 V"
b10001 P#
b10001 /$
bx m#
bx G"
b11 h#
b11 {
b11 "$
b1 f#
b1 !$
b1 x
b1 ~#
b110100000100010000000000000001 v"
b110100000100010000000000000001 )"
b1000 t"
b10000 K#
b1100 i"
b1100 n"
b1000 O"
b1000 m"
b1000 J#
b1100 r"
b1100 P"
b1100 l"
b1100 s"
b1100 ^
b1100 N"
10
1H
#50000
00
0H
b1111100101 1
