lab3/starter/sim/tests/ori/streamwave.vcd
$date
	Sun Mar  4 17:26:12 2018
$end
$version
	Icarus Verilog
$end
$timescale
	1ps
$end
$scope module userlogic_test $end
$var wire 32 ! data_out [31:0] $end
$var wire 15 " input_buffer_addr [14:0] $end
$var wire 15 # output_buffer_addr [14:0] $end
$var wire 32 $ ul_instr [31:0] $end
$var wire 32 % ul_instr_addr [31:0] $end
$var wire 32 & ul_read_addr [31:0] $end
$var wire 32 ' ul_read_data [31:0] $end
$var wire 32 ( ul_status [31:0] $end
$var wire 32 ) ul_test [31:0] $end
$var wire 32 * ul_write_addr [31:0] $end
$var wire 32 + ul_write_data [31:0] $end
$var wire 16 , ul_write_data_hi [15:0] $end
$var wire 16 - ul_write_data_lo [15:0] $end
$var wire 2 . ul_write_en_hi [1:0] $end
$var wire 2 / ul_write_en_lo [1:0] $end
$var reg 1 0 clk $end
$var reg 32 1 cycle_count [32:1] $end
$var integer 32 2 dump_vars [31:0] $end
$var reg 8192 3 dump_vars_filename [8192:1] $end
$var integer 32 4 i [31:0] $end
$var reg 10 5 image_n_columns [9:0] $end
$var reg 10 6 image_n_rows [9:0] $end
$var reg 8192 7 input_buffer_filename [8192:1] $end
$var reg 8192 8 instr_mem_filename [8192:1] $end
$var reg 32 9 num_cycles [32:1] $end
$var reg 33 : out_end_addr [32:0] $end
$var reg 33 ; out_start_addr [32:0] $end
$var integer 32 < outfile [31:0] $end
$var reg 8192 = output_buffer_filename [8192:1] $end
$var reg 15 > read_addr [14:0] $end
$var integer 32 ? read_input_buffer [31:0] $end
$var integer 32 @ read_instr_mem [31:0] $end
$var integer 32 A result [31:0] $end
$var reg 1 B rst_n $end
$var reg 8192 C test_result_filename [8192:1] $end
$var reg 32 D ul_command [31:0] $end
$var integer 32 E write_output_buffer [31:0] $end
$var integer 32 F write_test_result [31:0] $end
$scope module instr_mem $end
$var wire 14 G addr [13:0] $end
$var wire 1 H clk $end
$var wire 32 I din [31:0] $end
$var wire 1 J we $end
$var reg 32 K dout [31:0] $end
$upscope $end
$scope module input_buffer $end
$var wire 15 L addr [14:0] $end
$var wire 1 H clk $end
$var wire 32 M din [31:0] $end
$var wire 1 N we $end
$var reg 32 O dout [31:0] $end
$upscope $end
$scope module output_buffer $end
$var wire 15 P addr [14:0] $end
$var wire 1 H clk $end
$var wire 32 Q din [31:0] $end
$var wire 4 R we [3:0] $end
$var reg 32 S dout [31:0] $end
$scope begin column[0] $end
$upscope $end
$scope begin column[1] $end
$upscope $end
$scope begin column[2] $end
$upscope $end
$scope begin column[3] $end
$upscope $end
$upscope $end
$scope module ul $end
$var wire 1 T addr_cmd $end
$var wire 1 U addr_iobuf $end
$var wire 1 V addr_local $end
$var wire 1 W addr_status $end
$var wire 1 X addr_test $end
$var wire 1 H clk $end
$var wire 32 Y command [31:0] $end
$var wire 32 Z instr [31:0] $end
$var wire 32 [ instr_addr [31:0] $end
$var wire 32 \ mips_addr [31:0] $end
$var wire 32 ] mips_local_read_data [31:0] $end
$var wire 32 ^ mips_pc [31:0] $end
$var wire 32 _ mips_read_data [31:0] $end
$var wire 1 ` mips_read_en $end
$var wire 4 a mips_write_en [3:0] $end
$var wire 32 b read_addr_hi [31:0] $end
$var wire 32 c read_addr_lo [31:0] $end
$var wire 32 d read_data [31:0] $end
$var wire 16 e read_data_hi [15:0] $end
$var wire 16 f read_data_lo [15:0] $end
$var wire 1 g rst_n $end
$var wire 32 h status [31:0] $end
$var wire 32 i test [31:0] $end
$var wire 32 j write_addr_hi [31:0] $end
$var wire 32 k write_addr_lo [31:0] $end
$var wire 32 l write_data [31:0] $end
$var wire 16 m write_data_hi [15:0] $end
$var wire 16 n write_data_lo [15:0] $end
$var wire 2 o write_en_hi [1:0] $end
$var wire 2 p write_en_lo [1:0] $end
$var reg 32 q cmd_d [31:0] $end
$var reg 1 r read_cmd_d $end
$var reg 1 s read_iobuf_d $end
$var reg 32 t status_reg [31:0] $end
$var reg 32 u test_reg [31:0] $end
$scope module cpu $end
$var wire 32 v alu_op_x_ex [31:0] $end
$var wire 32 w alu_op_x_id [31:0] $end
$var wire 32 x alu_op_y_ex [31:0] $end
$var wire 32 y alu_op_y_id [31:0] $end
$var wire 1 z alu_op_y_zero_ex $end
$var wire 4 { alu_opcode_ex [3:0] $end
$var wire 4 | alu_opcode_id [3:0] $end
$var wire 1 } alu_overflow $end
$var wire 32 ~ alu_result_ex [31:0] $end
$var wire 32 !" alu_result_mem [31:0] $end
$var wire 32 "" alu_sc_result_ex [31:0] $end
$var wire 1 #" atomic_en $end
$var wire 1 H clk $end
$var wire 1 $" en $end
$var wire 1 %" en_if $end
$var wire 32 &" instr [31:0] $end
$var wire 32 '" instr_id [31:0] $end
$var wire 30 (" instr_number_id [29:0] $end
$var wire 32 )" instr_sav [31:0] $end
$var wire 32 *" jr_pc_id [31:0] $end
$var wire 1 +" jump_branch_id $end
$var wire 1 ," jump_reg_id $end
$var wire 1 -" jump_target_id $end
$var wire 32 ." mem_addr [31:0] $end
$var wire 1 /" mem_atomic_ex $end
$var wire 1 0" mem_atomic_id $end
$var wire 1 1" mem_byte_ex $end
$var wire 1 2" mem_byte_id $end
$var wire 1 3" mem_byte_mem $end
$var wire 1 4" mem_ll_ex $end
$var wire 1 5" mem_ll_id $end
$var wire 32 6" mem_out [31:0] $end
$var wire 32 7" mem_read_data [31:0] $end
$var wire 32 8" mem_read_data_byte_extend [31:0] $end
$var wire 8 9" mem_read_data_byte_select [7:0] $end
$var wire 1 ` mem_read_en $end
$var wire 1 :" mem_read_ex $end
$var wire 1 ;" mem_read_id $end
$var wire 1 <" mem_read_mem $end
$var wire 1 =" mem_sc_ex $end
$var wire 1 >" mem_sc_id $end
$var wire 1 ?" mem_sc_mask_id $end
$var wire 1 @" mem_signextend_ex $end
$var wire 1 A" mem_signextend_id $end
$var wire 1 B" mem_signextend_mem $end
$var wire 1 C" mem_we_ex $end
$var wire 1 D" mem_we_id $end
$var wire 32 E" mem_write_data [31:0] $end
$var wire 32 F" mem_write_data_ex [31:0] $end
$var wire 32 G" mem_write_data_id [31:0] $end
$var wire 4 H" mem_write_en [3:0] $end
$var wire 1 I" movn_ex $end
$var wire 1 J" movn_id $end
$var wire 1 K" movz_ex $end
$var wire 1 L" movz_id $end
$var wire 32 M" pc [31:0] $end
$var wire 32 N" pc_id [31:0] $end
$var wire 32 O" pc_if [31:0] $end
$var wire 1 P" reg_we_cond_ex $end
$var wire 1 Q" reg_we_ex $end
$var wire 1 R" reg_we_id $end
$var wire 1 S" reg_we_mem $end
$var wire 1 T" reg_we_wb $end
$var wire 5 U" reg_write_addr_ex [4:0] $end
$var wire 5 V" reg_write_addr_id [4:0] $end
$var wire 5 W" reg_write_addr_mem [4:0] $end
$var wire 5 X" reg_write_addr_wb [4:0] $end
$var wire 32 Y" reg_write_data_mem [31:0] $end
$var wire 32 Z" reg_write_data_wb [31:0] $end
$var wire 5 [" rs_addr_id [4:0] $end
$var wire 32 \" rs_data [31:0] $end
$var wire 32 ]" rs_data_id [31:0] $end
$var wire 32 ^" rs_data_id_fetch [31:0] $end
$var wire 1 _" rst $end
$var wire 1 `" rst_ex $end
$var wire 1 a" rst_id $end
$var wire 5 b" rt_addr_id [4:0] $end
$var wire 32 c" rt_data [31:0] $end
$var wire 32 d" rt_data_id [31:0] $end
$var wire 32 e" sc_result [31:0] $end
$var wire 1 f" stall $end
$var wire 1 g" stall_r $end
$scope module if_stage $end
$var wire 32 h" br_target [31:0] $end
$var wire 1 H clk $end
$var wire 1 %" en $end
$var wire 26 i" instr_id [25:0] $end
$var wire 32 j" j_addr [31:0] $end
$var wire 1 +" jump_branch $end
$var wire 1 ," jump_reg $end
$var wire 1 -" jump_target $end
$var wire 32 k" pc [31:0] $end
$var wire 32 l" pc_id [31:0] $end
$var wire 32 m" pc_id_p4 [31:0] $end
$var wire 32 n" pc_next [31:0] $end
$var wire 32 o" rs_data_in [31:0] $end
$var wire 1 _" rst $end
$scope module pc_reg $end
$var wire 1 H clk $end
$var wire 32 p" d [31:0] $end
$var wire 1 %" en $end
$var wire 1 _" r $end
$var reg 32 q" q [31:0] $end
$upscope $end
$upscope $end
$scope module pc_if2id $end
$var wire 1 H clk $end
$var wire 32 r" d [31:0] $end
$var wire 1 %" en $end
$var wire 1 _" r $end
$var reg 32 s" q [31:0] $end
$upscope $end
$scope module instr_sav_dff $end
$var wire 1 H clk $end
$var wire 32 t" d [31:0] $end
$var wire 1 $" en $end
$var wire 1 _" r $end
$var reg 32 u" q [31:0] $end
$upscope $end
$scope module stall_f_dff $end
$var wire 1 H clk $end
$var wire 1 f" d $end
$var wire 1 $" en $end
$var wire 1 _" r $end
$var reg 1 v" q $end
$upscope $end
$scope module rs_data_id_to_fetch $end
$var wire 1 H clk $end
$var wire 32 w" d [31:0] $end
$var wire 1 $" en $end
$var wire 1 _" r $end
$var reg 32 x" q [31:0] $end
$upscope $end
$scope module rst_id_ex $end
$var wire 1 H clk $end
$var wire 1 a" d $end
$var wire 1 $" en $end
$var wire 1 _" r $end
$var reg 1 y" q $end
$upscope $end
$scope module d_stage $end
$var wire 32 z" alu_op_x [31:0] $end
$var wire 32 {" alu_op_y [31:0] $end
$var wire 32 |" alu_result_ex [31:0] $end
$var wire 1 /" atomic_ex $end
$var wire 1 0" atomic_id $end
$var wire 1 }" forward_rs_ex $end
$var wire 1 ~" forward_rs_mem $end
$var wire 1 !# forward_rt_ex $end
$var wire 1 "# forward_rt_mem $end
$var wire 6 ## funct [5:0] $end
$var wire 32 $# imm [31:0] $end
$var wire 32 %# imm_sign_extend [31:0] $end
$var wire 32 &# imm_upper [31:0] $end
$var wire 32 '# imm_zero_extend [31:0] $end
$var wire 16 (# immediate [15:0] $end
$var wire 32 )# instr [31:0] $end
$var wire 1 *# isALUImm $end
$var wire 1 +# isBEQ $end
$var wire 1 ,# isBGEZAL $end
$var wire 1 -# isBGEZNL $end
$var wire 1 .# isBGTZ $end
$var wire 1 /# isBLEZ $end
$var wire 1 0# isBLTZAL $end
$var wire 1 1# isBLTZNL $end
$var wire 1 2# isBNE $end
$var wire 1 3# isBranchLink $end
$var wire 1 4# isEqual $end
$var wire 1 5# isGeZ $end
$var wire 1 6# isJ $end
$var wire 1 7# isJAL $end
$var wire 1 8# isJALR $end
$var wire 1 9# isJR $end
$var wire 1 :# isLA $end
$var wire 1 ;# isLUI $end
$var wire 1 <# isLZ $end
$var wire 1 =# isLeZ $end
$var wire 1 ># isSLL $end
$var wire 1 ?# isSLLV $end
$var wire 1 @# isSRA $end
$var wire 1 A# isSRAV $end
$var wire 1 B# isSRL $end
$var wire 1 C# isSRLV $end
$var wire 1 D# isShift $end
$var wire 1 E# isShiftImm $end
$var wire 32 F# jr_pc [31:0] $end
$var wire 1 +" jump_branch $end
$var wire 1 ," jump_reg $end
$var wire 1 -" jump_target $end
$var wire 1 2" mem_byte $end
$var wire 1 4" mem_ll_ex $end
$var wire 1 5" mem_ll_id $end
$var wire 1 ;" mem_read $end
$var wire 1 :" mem_read_ex $end
$var wire 1 >" mem_sc_id $end
$var wire 1 ?" mem_sc_mask_id $end
$var wire 1 A" mem_signextend $end
$var wire 1 D" mem_we $end
$var wire 32 G# mem_write_data [31:0] $end
$var wire 1 J" movn $end
$var wire 1 L" movz $end
$var wire 6 H# op [5:0] $end
$var wire 32 I# pc [31:0] $end
$var wire 32 J# pc_id_p8 [31:0] $end
$var wire 5 K# rd_addr [4:0] $end
$var wire 1 L# read_from_rs $end
$var wire 1 M# read_from_rt $end
$var wire 1 R" reg_we $end
$var wire 1 Q" reg_we_ex $end
$var wire 1 S" reg_we_mem $end
$var wire 5 N# reg_write_addr [4:0] $end
$var wire 5 O# reg_write_addr_ex [4:0] $end
$var wire 5 P# reg_write_addr_mem [4:0] $end
$var wire 32 Q# reg_write_data_mem [31:0] $end
$var wire 5 R# rs_addr [4:0] $end
$var wire 32 S# rs_data [31:0] $end
$var wire 32 T# rs_data_in [31:0] $end
$var wire 1 U# rs_mem_dependency $end
$var wire 5 V# rt_addr [4:0] $end
$var wire 32 W# rt_data [31:0] $end
$var wire 32 X# rt_data_in [31:0] $end
$var wire 1 Y# rt_mem_dependency $end
$var wire 5 Z# shamt [4:0] $end
$var wire 32 [# shift_amount [31:0] $end
$var wire 1 f" stall $end
$var wire 1 \# use_imm $end
$var reg 4 ]# alu_opcode [3:0] $end
$upscope $end
$scope module atomic $end
$var wire 1 _" ar $end
$var wire 1 H clk $end
$var wire 1 0" d $end
$var wire 1 #" en $end
$var wire 1 a" r $end
$var reg 1 ^# q $end
$upscope $end
$scope module sc $end
$var wire 1 _" ar $end
$var wire 1 H clk $end
$var wire 1 >" d $end
$var wire 1 $" en $end
$var wire 1 a" r $end
$var reg 1 _# q $end
$upscope $end
$scope module ll $end
$var wire 1 _" ar $end
$var wire 1 H clk $end
$var wire 1 5" d $end
$var wire 1 $" en $end
$var wire 1 a" r $end
$var reg 1 `# q $end
$upscope $end
$scope module alu_op_x_id2ex $end
$var wire 1 _" ar $end
$var wire 1 H clk $end
$var wire 32 a# d [31:0] $end
$var wire 1 $" en $end
$var wire 1 a" r $end
$var reg 32 b# q [31:0] $end
$upscope $end
$scope module alu_op_y_id2ex $end
$var wire 1 _" ar $end
$var wire 1 H clk $end
$var wire 32 c# d [31:0] $end
$var wire 1 $" en $end
$var wire 1 a" r $end
$var reg 32 d# q [31:0] $end
$upscope $end
$scope module alu_opcode_id2ex $end
$var wire 1 _" ar $end
$var wire 1 H clk $end
$var wire 4 e# d [3:0] $end
$var wire 1 $" en $end
$var wire 1 a" r $end
$var reg 4 f# q [3:0] $end
$upscope $end
$scope module movn $end
$var wire 1 _" ar $end
$var wire 1 H clk $end
$var wire 1 J" d $end
$var wire 1 $" en $end
$var wire 1 a" r $end
$var reg 1 g# q $end
$upscope $end
$scope module movz $end
$var wire 1 _" ar $end
$var wire 1 H clk $end
$var wire 1 L" d $end
$var wire 1 $" en $end
$var wire 1 a" r $end
$var reg 1 h# q $end
$upscope $end
$scope module lw_mem_read_ex $end
$var wire 1 _" ar $end
$var wire 1 H clk $end
$var wire 1 ;" d $end
$var wire 1 $" en $end
$var wire 1 a" r $end
$var reg 1 i# q $end
$upscope $end
$scope module mem_write_data_id2ex $end
$var wire 1 _" ar $end
$var wire 1 H clk $end
$var wire 32 j# d [31:0] $end
$var wire 1 $" en $end
$var wire 1 a" r $end
$var reg 32 k# q [31:0] $end
$upscope $end
$scope module mem_we_id2ex $end
$var wire 1 _" ar $end
$var wire 1 H clk $end
$var wire 1 l# d $end
$var wire 1 $" en $end
$var wire 1 a" r $end
$var reg 1 m# q $end
$upscope $end
$scope module mem_read_id2ex $end
$var wire 1 _" ar $end
$var wire 1 H clk $end
$var wire 1 n# d $end
$var wire 1 $" en $end
$var wire 1 a" r $end
$var reg 1 o# q $end
$upscope $end
$scope module mem_byte_id2ex $end
$var wire 1 _" ar $end
$var wire 1 H clk $end
$var wire 1 2" d $end
$var wire 1 $" en $end
$var wire 1 a" r $end
$var reg 1 p# q $end
$upscope $end
$scope module mem_signextend_id2ex $end
$var wire 1 _" ar $end
$var wire 1 H clk $end
$var wire 1 A" d $end
$var wire 1 $" en $end
$var wire 1 a" r $end
$var reg 1 q# q $end
$upscope $end
$scope module lw_mem_read_mem $end
$var wire 1 _" ar $end
$var wire 1 H clk $end
$var wire 1 :" d $end
$var wire 1 $" en $end
$var wire 1 `" r $end
$var reg 1 r# q $end
$upscope $end
$scope module reg_write_addr_id2ex $end
$var wire 1 _" ar $end
$var wire 1 H clk $end
$var wire 5 s# d [4:0] $end
$var wire 1 $" en $end
$var wire 1 a" r $end
$var reg 5 t# q [4:0] $end
$upscope $end
$scope module reg_we_id2ex $end
$var wire 1 _" ar $end
$var wire 1 H clk $end
$var wire 1 R" d $end
$var wire 1 $" en $end
$var wire 1 a" r $end
$var reg 1 u# q $end
$upscope $end
$scope module x_stage $end
$var wire 1 v# add_check $end
$var wire 1 w# add_neg_over $end
$var wire 1 x# add_pos_over $end
$var wire 1 y# alu_neg $end
$var wire 32 z# alu_op_x [31:0] $end
$var wire 32 {# alu_op_x_signed [31:0] $end
$var wire 32 |# alu_op_y [31:0] $end
$var wire 32 }# alu_op_y_signed [31:0] $end
$var wire 1 z alu_op_y_zero $end
$var wire 4 ~# alu_opcode [3:0] $end
$var wire 1 } alu_overflow $end
$var wire 1 !$ sub_check $end
$var wire 1 "$ sub_neg_over $end
$var wire 1 #$ sub_pos_over $end
$var wire 1 $$ x_neg $end
$var wire 1 %$ y_neg $end
$var reg 32 &$ alu_result [31:0] $end
$upscope $end
$scope module alu_result_ex2mem $end
$var wire 1 H clk $end
$var wire 32 '$ d [31:0] $end
$var wire 1 $" en $end
$var wire 1 _" r $end
$var reg 32 ($ q [31:0] $end
$upscope $end
$scope module mem_read_ex2mem $end
$var wire 1 H clk $end
$var wire 1 )$ d $end
$var wire 1 $" en $end
$var wire 1 _" r $end
$var reg 1 *$ q $end
$upscope $end
$scope module mem_byte_ex2mem $end
$var wire 1 H clk $end
$var wire 1 1" d $end
$var wire 1 $" en $end
$var wire 1 _" r $end
$var reg 1 +$ q $end
$upscope $end
$scope module mem_signextend_ex2mem $end
$var wire 1 H clk $end
$var wire 1 @" d $end
$var wire 1 $" en $end
$var wire 1 _" r $end
$var reg 1 ,$ q $end
$upscope $end
$scope module reg_write_addr_ex2mem $end
$var wire 1 H clk $end
$var wire 5 -$ d [4:0] $end
$var wire 1 $" en $end
$var wire 1 _" r $end
$var reg 5 .$ q [4:0] $end
$upscope $end
$scope module reg_we_ex2mem $end
$var wire 1 H clk $end
$var wire 1 Q" d $end
$var wire 1 $" en $end
$var wire 1 _" r $end
$var reg 1 /$ q $end
$upscope $end
$scope module reg_write_data_mem2wb $end
$var wire 1 H clk $end
$var wire 32 0$ d [31:0] $end
$var wire 1 $" en $end
$var wire 1 _" r $end
$var reg 32 1$ q [31:0] $end
$upscope $end
$scope module reg_write_addr_mem2wb $end
$var wire 1 H clk $end
$var wire 5 2$ d [4:0] $end
$var wire 1 $" en $end
$var wire 1 _" r $end
$var reg 5 3$ q [4:0] $end
$upscope $end
$scope module reg_we_mem2wb $end
$var wire 1 H clk $end
$var wire 1 S" d $end
$var wire 1 $" en $end
$var wire 1 _" r $end
$var reg 1 4$ q $end
$upscope $end
$scope module w_stage $end
$var wire 1 H clk $end
$var wire 1 $" en $end
$var wire 1 T" reg_we $end
$var wire 5 5$ reg_write_addr [4:0] $end
$var wire 32 6$ reg_write_data [31:0] $end
$var wire 5 7$ rs_addr [4:0] $end
$var wire 32 8$ rs_data [31:0] $end
$var wire 5 9$ rt_addr [4:0] $end
$var wire 32 :$ rt_data [31:0] $end
$upscope $end
$upscope $end
$scope module mips_local_store $end
$var wire 12 ;$ addr [11:0] $end
$var wire 1 H clk $end
$var wire 32 <$ din [31:0] $end
$var wire 4 =$ we [3:0] $end
$var reg 32 >$ dout [31:0] $end
$scope begin column[0] $end
$upscope $end
$scope begin column[1] $end
$upscope $end
$scope begin column[2] $end
$upscope $end
$scope begin column[3] $end
$upscope $end
$upscope $end
$upscope $end
$upscope $end
$enddefinitions $end
#0
$dumpvars
bx >$
b0 =$
b0 <$
b0 ;$
bx :$
bx 9$
bx 8$
bx 7$
b0 6$
b0 5$
04$
b0 3$
b0 2$
b0 1$
b0 0$
0/$
b0 .$
b0 -$
0,$
0+$
0*$
0)$
b0 ($
b0 '$
b0 &$
0%$
0$$
0#$
0"$
0!$
b0 ~#
b0 }#
b0 |#
b0 {#
b0 z#
0y#
0x#
0w#
0v#
0u#
b0 t#
bx s#
0r#
0q#
0p#
0o#
0n#
0m#
xl#
b0 k#
bx j#
0i#
0h#
0g#
b0 f#
b1101 e#
b0 d#
bx c#
b0 b#
bx a#
0`#
0_#
0^#
b1101 ]#
x\#
b0xxxxx [#
bx Z#
0Y#
bx X#
bx W#
bx V#
0U#
bx T#
bx S#
bx R#
b0 Q#
b0 P#
b0 O#
bx N#
xM#
xL#
bx K#
b1000 J#
b0 I#
bx H#
bx G#
bx F#
xE#
xD#
xC#
xB#
xA#
x@#
x?#
x>#
x=#
x<#
x;#
x:#
x9#
x8#
x7#
x6#
x5#
x4#
x3#
x2#
x1#
x0#
x/#
x.#
x-#
x,#
x+#
x*#
bx )#
bx (#
b0xxxxxxxxxxxxxxxx '#
bx0000000000000000 &#
bx %#
bx $#
bx ##
0"#
0!#
0~"
0}"
b0 |"
bx {"
bx z"
0y"
b0 x"
bx w"
0v"
b0 u"
bx t"
b0 s"
b0 r"
b0 q"
bx p"
bx o"
bx n"
b100 m"
b0 l"
b0 k"
bx j"
bx i"
bx h"
0g"
0f"
b0 e"
bx d"
bx c"
bx b"
0a"
0`"
0_"
b0 ^"
bx ]"
bx \"
bx ["
b0 Z"
b0 Y"
b0 X"
b0 W"
bx V"
b0 U"
0T"
0S"
xR"
0Q"
0P"
b0 O"
b0 N"
b0 M"
xL"
0K"
xJ"
0I"
b0 H"
bx G"
b0 F"
b0 E"
xD"
0C"
0B"
xA"
0@"
0?"
x>"
0="
0<"
x;"
0:"
bx 9"
b0xxxxxxxx 8"
bx 7"
bx 6"
x5"
04"
03"
x2"
01"
00"
0/"
b0 ."
x-"
x,"
x+"
bx *"
b0 )"
b0 ("
bx '"
bx &"
1%"
1$"
x#"
b0 ""
b0 !"
b0 ~
0}
b1101 |
b0 {
1z
bx y
b0 x
bx w
b0 v
bx u
bx t
xs
xr
bx q
b0 p
b0 o
b0 n
b0 m
b0 l
b0 k
b0 j
bx i
bx h
0g
bx f
bx e
bx d
b0 c
b0 b
b0 a
0`
bx _
b0 ^
bx ]
b0 \
b0 [
bx Z
b0xxxxxxxxxxxxxxxxxxxx10 Y
0X
0W
1V
0U
0T
bx S
b0 R
b0 Q
b0 P
bx O
0N
b0 M
b0 L
bx K
0J
b0 I
0H
b0 G
b1 F
b0 E
b0xxxxxxxxxxxxxxxxxxxx10 D
b11101000110010101110011011101000111001100101111011011110111001001101001001011110111010001100101011100110111010000101110011100100110010101110011011101010110110001110100 C
0B
b1 A
b1 @
b0 ?
b0 >
bx =
bx <
b0 ;
b100000000000000000 :
b1111101000 9
b111010001100101011100110111010001110011001011110110111101110010011010010010111101100010011101010110100101101100011001000010111101100001011100000111000000101110011010000110010101111000 8
bx 7
bx 6
bx 5
bx 4
b11101000110010101110011011101000111001100101111011011110111001001101001001011110111001101110100011100100110010101100001011011010111011101100001011101100110010100101110011101100110001101100100 3
b1 2
b0 1
00
b0 /
b0 .
b0 -
b0 ,
b0 +
b0 *
bx )
bx (
bx '
b0 &
b0 %
bx $
b0 #
b0 "
bx !
$end
#5000
0D#
b0 [#
b0 w
b0 z"
b0 a#
15#
1=#
0<#
b100 n"
b100 p"
0-"
b0 *"
b0 F#
b0 \"
b0 o"
b0 S#
b10000100000000000001000 j"
0E#
b10000000000000100000000000000000 y
b10000000000000100000000000000000 {"
b10000000000000100000000000000000 c#
0+"
03#
b10000 V"
b10000 N#
b10000 s#
0,"
b100000000000001100 h"
1R"
0l#
0#"
b0 ]"
b0 w"
b0 T#
b0 8$
0-#
0,#
0.#
0/#
01#
00#
09#
0:#
08#
0>#
0B#
0@#
0?#
0C#
0A#
b1100 ]#
b1100 |
b1100 e#
b10000000000000100000000000000000 $#
0+#
02#
06#
07#
1\#
0L#
0M#
1;#
0*#
0D"
0;"
02"
1A"
0>"
05"
b1111 H#
b0 ["
b0 R#
b0 7$
b10000 b"
b10000 V#
b10000 9$
b10000 K#
b0 Z#
0J"
0L"
b10 ##
b11111111111111111000000000000010 %#
b10000000000000100000000000000000 &#
b1000000000000010 '#
b1000000000000010 (#
b100001000000000000010 i"
b111100000100001000000000000010 '"
b111100000100001000000000000010 )#
b111100000100001000000000000010 K
b111100000100001000000000000010 $
b111100000100001000000000000010 Z
b111100000100001000000000000010 &"
b111100000100001000000000000010 t"
bx S
bx >$
b0 u
b0 )
b0 i
b0 t
b0 (
b0 h
0s
0r
b0 q
10
1H
#10000
00
0H
#15000
bx >$
bx S
10
1H
#20000
1_"
00
0H
b0xxxxxxxxxxxxxxxxxxxx00 D
b0xxxxxxxxxxxxxxxxxxxx00 Y
1B
1g
#25000
0V
04#
b10000000000000100000000000000000 G"
b10000000000000100000000000000000 G#
b10000000000000100000000000000000 j#
b10000000000000100000000000000000 c"
b10000000000000100000000000000000 W#
bx ,
bx m
bx +
bx Q
bx -
bx n
0x#
1#$
1y#
b10000000000000100000000000000000 ""
b10000000000000100000000000000000 '$
b1000 n"
b1000 p"
b1 G
1Q"
1!#
bx l
bx E"
bx <$
1%$
b10000000000000100000000000000000 &$
b10000000000000100000000000000000 ~
b10000000000000100000000000000000 |"
1W
b10000000000000100000000000000000 \
b10000000000000100000000000000000 ."
b1 %
b1 [
bx S
bx >$
1u#
1P"
b10000 t#
b10000 U"
b10000 O#
b10000 -$
1q#
1@"
bx k#
bx F"
b1100 f#
b1100 {
b1100 ~#
b10000000000000100000000000000000 d#
b10000000000000100000000000000000 }#
0z
b10000000000000100000000000000000 x
b10000000000000100000000000000000 |#
b111100000100001000000000000010 u"
b111100000100001000000000000010 )"
b100 q"
b100 O"
b100 k"
b100 r"
b100 ^
b100 M"
10
1H
#30000
00
0H
b1111100111 1
b0xxxxxxxxxxxxxxxxxxxx01 D
b0xxxxxxxxxxxxxxxxxxxx01 Y
#35000
b1 y
b1 {"
b1 c#
b10001 V"
b10001 N#
b10001 s#
x4#
bx G"
bx G#
bx j#
bx c"
bx W#
b11 ]#
b11 |
b11 e#
b1 $#
b10001000000000000000100 j"
1L#
0;#
1*#
b1101 H#
0!#
b10001 b"
b10001 V#
b10001 9$
b0 K#
b1 ##
b1 %#
b10000000000000000 &#
b1 '#
b1 (#
b100010000000000000001 i"
b1100 n"
b1100 p"
b10 G
b1000000000000010 ,
b1000000000000010 m
b10000000000000100000000000000000 +
b10000000000000100000000000000000 Q
b0 -
b0 n
b110100000100010000000000000001 '"
b110100000100010000000000000001 )#
b10 %
b10 [
b1 ("
b10000000000000100000000000000000 l
b10000000000000100000000000000000 E"
b10000000000000100000000000000000 <$
b10000000000000100000000000000000 Y"
b10000000000000100000000000000000 Q#
b10000000000000100000000000000000 0$
bx 8"
bx >$
bx S
b110100000100010000000000000001 K
b110100000100010000000000000001 $
b110100000100010000000000000001 Z
b110100000100010000000000000001 &"
b110100000100010000000000000001 t"
b1000 q"
b1000 O"
b1000 k"
b1000 r"
b1000 ^
b1000 M"
b100 s"
b1100 J#
b1100 h"
b1000 m"
b100 N"
b100 l"
b100 I#
b10000000000000100000000000000000 k#
b10000000000000100000000000000000 F"
b10000000000000100000000000000000 ($
b10000000000000100000000000000000 !"
1,$
1B"
b10000 .$
0"#
b10000 W"
b10000 P#
b10000 2$
1/$
1S"
10
1H
#40000
00
0H
b1111100110 1
#45000
b100 y
b100 {"
b100 c#
b10000000000000100000000000000000 w
b10000000000000100000000000000000 z"
b10000000000000100000000000000000 a#
1=#
1<#
b10000000000000100000000000000000 *"
b10000000000000100000000000000000 F#
b10000000000000100000000000000000 \"
b10000000000000100000000000000000 o"
b10000000000000100000000000000000 S#
b100 $#
0R"
1l#
b10000000000000100000000000000000 ]"
b10000000000000100000000000000000 w"
b10000000000000100000000000000000 T#
b10000000000000100000000000000000 8$
b1101 ]#
b1101 |
b1101 e#
b1000010001000000000000010000 j"
1V
1M#
0*#
1D"
b101011 H#
1~"
b10000 ["
b10000 R#
b10000 7$
b100 ##
b100 %#
b1000000000000000000 &#
b100 '#
b100 (#
b10000100010000000000000100 i"
bx ,
bx m
bx +
bx Q
bx -
bx n
0y#
b1 ""
b1 '$
b10000 n"
b10000 p"
b11 G
b10101110000100010000000000000100 '"
b10101110000100010000000000000100 )#
04#
b1 G"
b1 G#
b1 j#
b1 c"
b1 W#
bx l
bx E"
bx <$
0#$
0%$
b1 &$
b1 ~
b1 |"
0U
0W
b1 \
b1 ."
b10 ("
b11 %
b11 [
b10101110000100010000000000000100 K
b10101110000100010000000000000100 $
b10101110000100010000000000000100 Z
b10101110000100010000000000000100 &"
b10101110000100010000000000000100 t"
bx S
bx >$
14$
1T"
b10000 3$
b10000 X"
b10000 5$
b10000000000000100000000000000000 1$
b10000000000000100000000000000000 Z"
b10000000000000100000000000000000 6$
b10001 t#
1!#
b10001 U"
b10001 O#
b10001 -$
bx k#
bx F"
b11 f#
b11 {
b11 ~#
b1 d#
b1 }#
b1 x
b1 |#
b110100000100010000000000000001 u"
b110100000100010000000000000001 )"
b1000 s"
b10000 J#
b11100 h"
b1100 m"
b1000 N"
b1000 l"
b1000 I#
b1100 q"
b1100 O"
b1100 k"
b1100 r"
b1100 ^
b1100 M"
10
1H
#50000
00
0H
b1111100101 1
